<?xml version="1.0" encoding="UTF-8" standalone="no"?>
<svg
   xmlns:dc="http://purl.org/dc/elements/1.1/"
   xmlns:cc="http://creativecommons.org/ns#"
   xmlns:rdf="http://www.w3.org/1999/02/22-rdf-syntax-ns#"
   xmlns:svg="http://www.w3.org/2000/svg"
   xmlns="http://www.w3.org/2000/svg"
   xmlns:xlink="http://www.w3.org/1999/xlink"
   xmlns:sodipodi="http://sodipodi.sourceforge.net/DTD/sodipodi-0.dtd"
   xmlns:inkscape="http://www.inkscape.org/namespaces/inkscape"
   width="792.96527"
   height="428.11905"
   id="svg20864"
   version="1.1"
   inkscape:version="1.0.2 (e86c870879, 2021-01-15)"
   sodipodi:docname="git-layout-detailed-1.svg">
  <defs
     id="defs20866">
    <inkscape:perspective
       sodipodi:type="inkscape:persp3d"
       inkscape:vp_x="0 : -98.062044 : 1"
       inkscape:vp_y="0 : 1000 : 0"
       inkscape:vp_z="744.09448 : -98.062044 : 1"
       inkscape:persp3d-origin="372.04724 : -273.45574 : 1"
       id="perspective20872" />
    <inkscape:perspective
       id="perspective20542"
       inkscape:persp3d-origin="0.5 : -623.9098 : 1"
       inkscape:vp_z="1 : -623.74313 : 1"
       inkscape:vp_y="0 : 1000 : 0"
       inkscape:vp_x="0 : -623.74313 : 1"
       sodipodi:type="inkscape:persp3d" />
    <linearGradient
       id="linearGradient3649-1-6-8-3">
      <stop
         style="stop-color:#ffffff;stop-opacity:1;"
         offset="0"
         id="stop3651-1-6-6-2" />
      <stop
         style="stop-color:#fb9477;stop-opacity:1;"
         offset="1"
         id="stop3653-8-93-6-6" />
    </linearGradient>
    <marker
       inkscape:stockid="Arrow2Mend"
       orient="auto"
       refY="0"
       refX="0"
       id="Arrow2Mend"
       style="overflow:visible">
      <path
         id="path3851"
         style="font-size:12px;fill-rule:evenodd;stroke-width:0.625;stroke-linejoin:round"
         d="M 8.7185878,4.0337352 -2.2072895,0.01601326 8.7185884,-4.0017078 c -1.7454984,2.3720609 -1.7354408,5.6174519 -6e-7,8.035443 z"
         transform="scale(-0.6)" />
    </marker>
    <linearGradient
       id="linearGradient3611-6-0-2-4">
      <stop
         style="stop-color:#ffffff;stop-opacity:1;"
         offset="0"
         id="stop3613-8-3-4-7" />
      <stop
         style="stop-color:#77c0fb;stop-opacity:1;"
         offset="1"
         id="stop3615-8-30-2-1" />
    </linearGradient>
    <linearGradient
       id="linearGradient3633-7-3-41-4-2">
      <stop
         id="stop3635-1-8-32-2-3"
         offset="0"
         style="stop-color:#ffffff;stop-opacity:1;" />
      <stop
         id="stop3637-1-8-4-2-3"
         offset="1"
         style="stop-color:#77fb92;stop-opacity:1;" />
    </linearGradient>
    <linearGradient
       id="linearGradient6610-7-3-4-1">
      <stop
         id="stop6612-1-9-7-0"
         offset="0"
         style="stop-color:#ffffff;stop-opacity:1;" />
      <stop
         id="stop6614-4-0-9-8"
         offset="1"
         style="stop-color:#fbdd77;stop-opacity:1;" />
    </linearGradient>
    <linearGradient
       id="linearGradient6610-0-2-8-7">
      <stop
         id="stop6612-4-70-1-6"
         offset="0"
         style="stop-color:#ffffff;stop-opacity:1;" />
      <stop
         id="stop6614-3-9-8-4"
         offset="1"
         style="stop-color:#fbdd77;stop-opacity:1;" />
    </linearGradient>
    <linearGradient
       id="linearGradient6610-0-9-44-9-9">
      <stop
         id="stop6612-4-0-26-2-9"
         offset="0"
         style="stop-color:#ffffff;stop-opacity:1;" />
      <stop
         id="stop6614-3-0-83-3-9"
         offset="1"
         style="stop-color:#fbdd77;stop-opacity:1;" />
    </linearGradient>
    <marker
       inkscape:stockid="Arrow2Mend"
       orient="auto"
       refY="0"
       refX="0"
       id="marker5271"
       style="overflow:visible">
      <path
         id="path5273"
         style="font-size:12px;fill-rule:evenodd;stroke-width:0.625;stroke-linejoin:round"
         d="M 8.7185878,4.0337352 -2.2072895,0.01601326 8.7185884,-4.0017078 c -1.7454984,2.3720609 -1.7354408,5.6174519 -6e-7,8.035443 z"
         transform="scale(-0.6)" />
    </marker>
    <marker
       inkscape:stockid="Arrow2Mend"
       orient="auto"
       refY="0"
       refX="0"
       id="marker20574"
       style="overflow:visible">
      <path
         id="path20576"
         style="font-size:12px;fill-rule:evenodd;stroke-width:0.625;stroke-linejoin:round"
         d="M 8.7185878,4.0337352 -2.2072895,0.01601326 8.7185884,-4.0017078 c -1.7454984,2.3720609 -1.7354408,5.6174519 -6e-7,8.035443 z"
         transform="scale(-0.6)" />
    </marker>
    <marker
       inkscape:stockid="Arrow2Mend"
       orient="auto"
       refY="0"
       refX="0"
       id="marker20578"
       style="overflow:visible">
      <path
         id="path20580"
         style="font-size:12px;fill-rule:evenodd;stroke-width:0.625;stroke-linejoin:round"
         d="M 8.7185878,4.0337352 -2.2072895,0.01601326 8.7185884,-4.0017078 c -1.7454984,2.3720609 -1.7354408,5.6174519 -6e-7,8.035443 z"
         transform="scale(-0.6)" />
    </marker>
    <radialGradient
       inkscape:collect="always"
       xlink:href="#linearGradient3633-7-3-41-4"
       id="radialGradient19836"
       gradientUnits="userSpaceOnUse"
       gradientTransform="matrix(8.0128731,7.2573479e-7,-3.8421984e-7,11.36963,-2969.6587,-906.80001)"
       cx="314.28571"
       cy="110.21933"
       fx="314.28571"
       fy="110.21933"
       r="51.5" />
    <linearGradient
       id="linearGradient3633-7-3-41-4">
      <stop
         id="stop3635-1-8-32-2"
         offset="0"
         style="stop-color:#ffffff;stop-opacity:1;" />
      <stop
         id="stop3637-1-8-4-2"
         offset="1"
         style="stop-color:#77fb92;stop-opacity:1;" />
    </linearGradient>
    <radialGradient
       inkscape:collect="always"
       xlink:href="#linearGradient6610-7-3-4"
       id="radialGradient19838"
       gradientUnits="userSpaceOnUse"
       gradientTransform="matrix(2.5814329,-1.7620719e-7,1.6619134e-7,2.4347008,-361.47041,-226.79239)"
       cx="228.57143"
       cy="158.07646"
       fx="228.57143"
       fy="158.07646"
       r="67.214287" />
    <linearGradient
       id="linearGradient6610-7-3-4">
      <stop
         id="stop6612-1-9-7"
         offset="0"
         style="stop-color:#ffffff;stop-opacity:1;" />
      <stop
         id="stop6614-4-0-9"
         offset="1"
         style="stop-color:#fbdd77;stop-opacity:1;" />
    </linearGradient>
    <radialGradient
       inkscape:collect="always"
       xlink:href="#linearGradient6610-0-2-8"
       id="radialGradient19840"
       gradientUnits="userSpaceOnUse"
       gradientTransform="matrix(2.5814329,-1.7620719e-7,1.6619134e-7,2.4347008,-361.47041,-226.79239)"
       cx="228.57143"
       cy="158.07646"
       fx="228.57143"
       fy="158.07646"
       r="67.214287" />
    <linearGradient
       id="linearGradient6610-0-2-8">
      <stop
         id="stop6612-4-70-1"
         offset="0"
         style="stop-color:#ffffff;stop-opacity:1;" />
      <stop
         id="stop6614-3-9-8"
         offset="1"
         style="stop-color:#fbdd77;stop-opacity:1;" />
    </linearGradient>
    <radialGradient
       inkscape:collect="always"
       xlink:href="#linearGradient6610-0-9-44-9"
       id="radialGradient19842"
       gradientUnits="userSpaceOnUse"
       gradientTransform="matrix(2.5814329,-1.7620719e-7,1.6619134e-7,2.4347008,-361.47041,-226.79239)"
       cx="228.57143"
       cy="158.07646"
       fx="228.57143"
       fy="158.07646"
       r="67.214287" />
    <linearGradient
       id="linearGradient6610-0-9-44-9">
      <stop
         id="stop6612-4-0-26-2"
         offset="0"
         style="stop-color:#ffffff;stop-opacity:1;" />
      <stop
         id="stop6614-3-0-83-3"
         offset="1"
         style="stop-color:#fbdd77;stop-opacity:1;" />
    </linearGradient>
    <marker
       inkscape:stockid="Arrow2Mend"
       orient="auto"
       refY="0"
       refX="0"
       id="marker20598"
       style="overflow:visible">
      <path
         id="path20600"
         style="font-size:12px;fill-rule:evenodd;stroke-width:0.625;stroke-linejoin:round"
         d="M 8.7185878,4.0337352 -2.2072895,0.01601326 8.7185884,-4.0017078 c -1.7454984,2.3720609 -1.7354408,5.6174519 -6e-7,8.035443 z"
         transform="scale(-0.6)" />
    </marker>
    <marker
       inkscape:stockid="Arrow2Mend"
       orient="auto"
       refY="0"
       refX="0"
       id="marker20602"
       style="overflow:visible">
      <path
         id="path20604"
         style="font-size:12px;fill-rule:evenodd;stroke-width:0.625;stroke-linejoin:round"
         d="M 8.7185878,4.0337352 -2.2072895,0.01601326 8.7185884,-4.0017078 c -1.7454984,2.3720609 -1.7354408,5.6174519 -6e-7,8.035443 z"
         transform="scale(-0.6)" />
    </marker>
    <marker
       inkscape:stockid="Arrow2Mend"
       orient="auto"
       refY="0"
       refX="0"
       id="marker20606"
       style="overflow:visible">
      <path
         id="path20608"
         style="font-size:12px;fill-rule:evenodd;stroke-width:0.625;stroke-linejoin:round"
         d="M 8.7185878,4.0337352 -2.2072895,0.01601326 8.7185884,-4.0017078 c -1.7454984,2.3720609 -1.7354408,5.6174519 -6e-7,8.035443 z"
         transform="scale(-0.6)" />
    </marker>
    <radialGradient
       inkscape:collect="always"
       xlink:href="#linearGradient3649-1-6-8"
       id="radialGradient19844"
       gradientUnits="userSpaceOnUse"
       gradientTransform="matrix(1.6118713,-1.5004796e-7,1.4509683e-7,1.5586844,-226.82946,-119.73465)"
       cx="370.96881"
       cy="214.37251"
       fx="371.41196"
       fy="225.82906"
       r="46.695156" />
    <linearGradient
       id="linearGradient3649-1-6-8">
      <stop
         style="stop-color:#ffffff;stop-opacity:1;"
         offset="0"
         id="stop3651-1-6-6" />
      <stop
         style="stop-color:#fb9477;stop-opacity:1;"
         offset="1"
         id="stop3653-8-93-6" />
    </linearGradient>
    <radialGradient
       inkscape:collect="always"
       xlink:href="#linearGradient3611-6-0-2"
       id="radialGradient19846"
       gradientUnits="userSpaceOnUse"
       gradientTransform="matrix(3.3718563,-2.3016106e-7,2.170784e-7,3.1801955,-161.85466,-567.07734)"
       cx="228.57143"
       cy="158.07646"
       fx="228.57143"
       fy="158.07646"
       r="67.214287" />
    <linearGradient
       id="linearGradient3611-6-0-2">
      <stop
         style="stop-color:#ffffff;stop-opacity:1;"
         offset="0"
         id="stop3613-8-3-4" />
      <stop
         style="stop-color:#77c0fb;stop-opacity:1;"
         offset="1"
         id="stop3615-8-30-2" />
    </linearGradient>
    <marker
       inkscape:stockid="Arrow2Mend"
       orient="auto"
       refY="0"
       refX="0"
       id="marker20618"
       style="overflow:visible">
      <path
         id="path20620"
         style="font-size:12px;fill-rule:evenodd;stroke-width:0.625;stroke-linejoin:round"
         d="M 8.7185878,4.0337352 -2.2072895,0.01601326 8.7185884,-4.0017078 c -1.7454984,2.3720609 -1.7354408,5.6174519 -6e-7,8.035443 z"
         transform="scale(-0.6)" />
    </marker>
    <linearGradient
       id="linearGradient3633-7-3-41-4-44">
      <stop
         id="stop3635-1-8-32-2-19"
         offset="0"
         style="stop-color:#ffffff;stop-opacity:1;" />
      <stop
         id="stop3637-1-8-4-2-1"
         offset="1"
         style="stop-color:#77fb92;stop-opacity:1;" />
    </linearGradient>
    <linearGradient
       id="linearGradient6610-7-3-4-5">
      <stop
         id="stop6612-1-9-7-01"
         offset="0"
         style="stop-color:#ffffff;stop-opacity:1;" />
      <stop
         id="stop6614-4-0-9-66"
         offset="1"
         style="stop-color:#fbdd77;stop-opacity:1;" />
    </linearGradient>
    <linearGradient
       id="linearGradient6610-0-2-8-9">
      <stop
         id="stop6612-4-70-1-7"
         offset="0"
         style="stop-color:#ffffff;stop-opacity:1;" />
      <stop
         id="stop6614-3-9-8-6"
         offset="1"
         style="stop-color:#fbdd77;stop-opacity:1;" />
    </linearGradient>
    <linearGradient
       id="linearGradient6610-0-9-44-9-96">
      <stop
         id="stop6612-4-0-26-2-8"
         offset="0"
         style="stop-color:#ffffff;stop-opacity:1;" />
      <stop
         id="stop6614-3-0-83-3-53"
         offset="1"
         style="stop-color:#fbdd77;stop-opacity:1;" />
    </linearGradient>
    <marker
       inkscape:stockid="Arrow2Mend"
       orient="auto"
       refY="0"
       refX="0"
       id="marker20638"
       style="overflow:visible">
      <path
         id="path20640"
         style="font-size:12px;fill-rule:evenodd;stroke-width:0.625;stroke-linejoin:round"
         d="M 8.7185878,4.0337352 -2.2072895,0.01601326 8.7185884,-4.0017078 c -1.7454984,2.3720609 -1.7354408,5.6174519 -6e-7,8.035443 z"
         transform="scale(-0.6)" />
    </marker>
    <marker
       inkscape:stockid="Arrow2Mend"
       orient="auto"
       refY="0"
       refX="0"
       id="marker20642"
       style="overflow:visible">
      <path
         id="path20644"
         style="font-size:12px;fill-rule:evenodd;stroke-width:0.625;stroke-linejoin:round"
         d="M 8.7185878,4.0337352 -2.2072895,0.01601326 8.7185884,-4.0017078 c -1.7454984,2.3720609 -1.7354408,5.6174519 -6e-7,8.035443 z"
         transform="scale(-0.6)" />
    </marker>
    <marker
       inkscape:stockid="Arrow2Mend"
       orient="auto"
       refY="0"
       refX="0"
       id="marker20646"
       style="overflow:visible">
      <path
         id="path20648"
         style="font-size:12px;fill-rule:evenodd;stroke-width:0.625;stroke-linejoin:round"
         d="M 8.7185878,4.0337352 -2.2072895,0.01601326 8.7185884,-4.0017078 c -1.7454984,2.3720609 -1.7354408,5.6174519 -6e-7,8.035443 z"
         transform="scale(-0.6)" />
    </marker>
    <linearGradient
       id="linearGradient3649-1-6-8-9">
      <stop
         style="stop-color:#ffffff;stop-opacity:1;"
         offset="0"
         id="stop3651-1-6-6-3" />
      <stop
         style="stop-color:#fb9477;stop-opacity:1;"
         offset="1"
         id="stop3653-8-93-6-67" />
    </linearGradient>
    <linearGradient
       id="linearGradient3611-6-0-2-54">
      <stop
         style="stop-color:#ffffff;stop-opacity:1;"
         offset="0"
         id="stop3613-8-3-4-51" />
      <stop
         style="stop-color:#77c0fb;stop-opacity:1;"
         offset="1"
         id="stop3615-8-30-2-11" />
    </linearGradient>
    <linearGradient
       id="linearGradient3633-7-3-41-4-44-1">
      <stop
         id="stop3635-1-8-32-2-19-9"
         offset="0"
         style="stop-color:#ffffff;stop-opacity:1;" />
      <stop
         id="stop3637-1-8-4-2-1-4"
         offset="1"
         style="stop-color:#77fb92;stop-opacity:1;" />
    </linearGradient>
    <linearGradient
       id="linearGradient6610-7-3-4-5-2">
      <stop
         id="stop6612-1-9-7-01-9"
         offset="0"
         style="stop-color:#ffffff;stop-opacity:1;" />
      <stop
         id="stop6614-4-0-9-66-2"
         offset="1"
         style="stop-color:#fbdd77;stop-opacity:1;" />
    </linearGradient>
    <linearGradient
       id="linearGradient6610-0-2-8-9-8">
      <stop
         id="stop6612-4-70-1-7-6"
         offset="0"
         style="stop-color:#ffffff;stop-opacity:1;" />
      <stop
         id="stop6614-3-9-8-6-8"
         offset="1"
         style="stop-color:#fbdd77;stop-opacity:1;" />
    </linearGradient>
    <linearGradient
       id="linearGradient6610-0-9-44-9-96-7">
      <stop
         id="stop6612-4-0-26-2-8-4"
         offset="0"
         style="stop-color:#ffffff;stop-opacity:1;" />
      <stop
         id="stop6614-3-0-83-3-53-9"
         offset="1"
         style="stop-color:#fbdd77;stop-opacity:1;" />
    </linearGradient>
    <marker
       inkscape:stockid="Arrow2Mend"
       orient="auto"
       refY="0"
       refX="0"
       id="marker20674"
       style="overflow:visible">
      <path
         id="path20676"
         style="font-size:12px;fill-rule:evenodd;stroke-width:0.625;stroke-linejoin:round"
         d="M 8.7185878,4.0337352 -2.2072895,0.01601326 8.7185884,-4.0017078 c -1.7454984,2.3720609 -1.7354408,5.6174519 -6e-7,8.035443 z"
         transform="scale(-0.6)" />
    </marker>
    <marker
       inkscape:stockid="Arrow2Mend"
       orient="auto"
       refY="0"
       refX="0"
       id="marker20678"
       style="overflow:visible">
      <path
         id="path20680"
         style="font-size:12px;fill-rule:evenodd;stroke-width:0.625;stroke-linejoin:round"
         d="M 8.7185878,4.0337352 -2.2072895,0.01601326 8.7185884,-4.0017078 c -1.7454984,2.3720609 -1.7354408,5.6174519 -6e-7,8.035443 z"
         transform="scale(-0.6)" />
    </marker>
    <marker
       inkscape:stockid="Arrow2Mend"
       orient="auto"
       refY="0"
       refX="0"
       id="marker20682"
       style="overflow:visible">
      <path
         id="path20684"
         style="font-size:12px;fill-rule:evenodd;stroke-width:0.625;stroke-linejoin:round"
         d="M 8.7185878,4.0337352 -2.2072895,0.01601326 8.7185884,-4.0017078 c -1.7454984,2.3720609 -1.7354408,5.6174519 -6e-7,8.035443 z"
         transform="scale(-0.6)" />
    </marker>
    <linearGradient
       id="linearGradient3649-1-6-8-9-9">
      <stop
         style="stop-color:#ffffff;stop-opacity:1;"
         offset="0"
         id="stop3651-1-6-6-3-2" />
      <stop
         style="stop-color:#fb9477;stop-opacity:1;"
         offset="1"
         id="stop3653-8-93-6-67-4" />
    </linearGradient>
    <linearGradient
       id="linearGradient3611-6-0-2-54-6">
      <stop
         style="stop-color:#ffffff;stop-opacity:1;"
         offset="0"
         id="stop3613-8-3-4-51-9" />
      <stop
         style="stop-color:#77c0fb;stop-opacity:1;"
         offset="1"
         id="stop3615-8-30-2-11-7" />
    </linearGradient>
    <radialGradient
       inkscape:collect="always"
       xlink:href="#linearGradient3633-7-3-41-4"
       id="radialGradient1414"
       gradientUnits="userSpaceOnUse"
       gradientTransform="matrix(8.0128731,7.2573479e-7,-3.8421984e-7,11.36963,-2969.6587,-906.80001)"
       cx="314.28571"
       cy="110.21933"
       fx="314.28571"
       fy="110.21933"
       r="51.5" />
    <radialGradient
       inkscape:collect="always"
       xlink:href="#linearGradient6610-7-3-4"
       id="radialGradient1416"
       gradientUnits="userSpaceOnUse"
       gradientTransform="matrix(2.5814329,-1.7620719e-7,1.6619134e-7,2.4347008,-361.47041,-226.79239)"
       cx="228.57143"
       cy="158.07646"
       fx="228.57143"
       fy="158.07646"
       r="67.214287" />
    <radialGradient
       inkscape:collect="always"
       xlink:href="#linearGradient6610-0-2-8"
       id="radialGradient1418"
       gradientUnits="userSpaceOnUse"
       gradientTransform="matrix(2.5814329,-1.7620719e-7,1.6619134e-7,2.4347008,-361.47041,-226.79239)"
       cx="228.57143"
       cy="158.07646"
       fx="228.57143"
       fy="158.07646"
       r="67.214287" />
    <radialGradient
       inkscape:collect="always"
       xlink:href="#linearGradient6610-0-9-44-9"
       id="radialGradient1420"
       gradientUnits="userSpaceOnUse"
       gradientTransform="matrix(2.5814329,-1.7620719e-7,1.6619134e-7,2.4347008,-361.47041,-226.79239)"
       cx="228.57143"
       cy="158.07646"
       fx="228.57143"
       fy="158.07646"
       r="67.214287" />
    <radialGradient
       inkscape:collect="always"
       xlink:href="#linearGradient3649-1-6-8"
       id="radialGradient1422"
       gradientUnits="userSpaceOnUse"
       gradientTransform="matrix(1.6118713,-1.5004796e-7,1.4509683e-7,1.5586844,-226.82946,-119.73465)"
       cx="370.96881"
       cy="214.37251"
       fx="371.41196"
       fy="225.82906"
       r="46.695156" />
    <radialGradient
       inkscape:collect="always"
       xlink:href="#linearGradient3611-6-0-2"
       id="radialGradient1424"
       gradientUnits="userSpaceOnUse"
       gradientTransform="matrix(3.3718563,-2.3016106e-7,2.170784e-7,3.1801955,-1081.8547,-567.07734)"
       cx="228.57143"
       cy="158.07646"
       fx="228.57143"
       fy="158.07646"
       r="67.214287" />
    <radialGradient
       inkscape:collect="always"
       xlink:href="#linearGradient3633-7-3-41-4"
       id="radialGradient1660"
       gradientUnits="userSpaceOnUse"
       gradientTransform="matrix(8.0128731,7.2573479e-7,-3.8421984e-7,11.36963,-2969.6587,-906.80001)"
       cx="314.28571"
       cy="110.21933"
       fx="314.28571"
       fy="110.21933"
       r="51.5" />
    <radialGradient
       inkscape:collect="always"
       xlink:href="#linearGradient6610-7-3-4"
       id="radialGradient1662"
       gradientUnits="userSpaceOnUse"
       gradientTransform="matrix(2.5814329,-1.7620719e-7,1.6619134e-7,2.4347008,-361.47041,-226.79239)"
       cx="228.57143"
       cy="158.07646"
       fx="228.57143"
       fy="158.07646"
       r="67.214287" />
    <radialGradient
       inkscape:collect="always"
       xlink:href="#linearGradient6610-0-2-8"
       id="radialGradient1664"
       gradientUnits="userSpaceOnUse"
       gradientTransform="matrix(2.5814329,-1.7620719e-7,1.6619134e-7,2.4347008,-361.47041,-226.79239)"
       cx="228.57143"
       cy="158.07646"
       fx="228.57143"
       fy="158.07646"
       r="67.214287" />
    <radialGradient
       inkscape:collect="always"
       xlink:href="#linearGradient6610-0-9-44-9"
       id="radialGradient1666"
       gradientUnits="userSpaceOnUse"
       gradientTransform="matrix(2.5814329,-1.7620719e-7,1.6619134e-7,2.4347008,-361.47041,-226.79239)"
       cx="228.57143"
       cy="158.07646"
       fx="228.57143"
       fy="158.07646"
       r="67.214287" />
    <radialGradient
       inkscape:collect="always"
       xlink:href="#linearGradient3649-1-6-8"
       id="radialGradient1668"
       gradientUnits="userSpaceOnUse"
       gradientTransform="matrix(1.6118713,-1.5004796e-7,1.4509683e-7,1.5586844,-226.82946,-119.73465)"
       cx="370.96881"
       cy="214.37251"
       fx="371.41196"
       fy="225.82906"
       r="46.695156" />
    <radialGradient
       inkscape:collect="always"
       xlink:href="#linearGradient3611-6-0-2"
       id="radialGradient1670"
       gradientUnits="userSpaceOnUse"
       gradientTransform="matrix(3.3718563,-2.3016106e-7,2.170784e-7,3.1801955,-1081.8547,-27.07734)"
       cx="228.57143"
       cy="158.07646"
       fx="228.57143"
       fy="158.07646"
       r="67.214287" />
    <radialGradient
       inkscape:collect="always"
       xlink:href="#linearGradient3611-6-0-2"
       id="radialGradient1952"
       gradientUnits="userSpaceOnUse"
       gradientTransform="matrix(3.3718563,-2.3016106e-7,2.170784e-7,3.1801955,-161.8547,-27.07734)"
       cx="228.57143"
       cy="158.07646"
       fx="228.57143"
       fy="158.07646"
       r="67.214287" />
    <radialGradient
       inkscape:collect="always"
       xlink:href="#linearGradient3649-1-6-8"
       id="radialGradient1954"
       gradientUnits="userSpaceOnUse"
       gradientTransform="matrix(1.6118713,-1.5004796e-7,1.4509683e-7,1.5586844,-226.82946,-119.73465)"
       cx="370.96881"
       cy="214.37251"
       fx="371.41196"
       fy="225.82906"
       r="46.695156" />
    <radialGradient
       inkscape:collect="always"
       xlink:href="#linearGradient3633-7-3-41-4"
       id="radialGradient1956"
       gradientUnits="userSpaceOnUse"
       gradientTransform="matrix(8.0128731,7.2573479e-7,-3.8421984e-7,11.36963,-2969.6587,-906.80001)"
       cx="314.28571"
       cy="110.21933"
       fx="314.28571"
       fy="110.21933"
       r="51.5" />
    <radialGradient
       inkscape:collect="always"
       xlink:href="#linearGradient6610-7-3-4"
       id="radialGradient1958"
       gradientUnits="userSpaceOnUse"
       gradientTransform="matrix(2.5814329,-1.7620719e-7,1.6619134e-7,2.4347008,-361.47041,-226.79239)"
       cx="228.57143"
       cy="158.07646"
       fx="228.57143"
       fy="158.07646"
       r="67.214287" />
    <radialGradient
       inkscape:collect="always"
       xlink:href="#linearGradient6610-0-2-8"
       id="radialGradient1960"
       gradientUnits="userSpaceOnUse"
       gradientTransform="matrix(2.5814329,-1.7620719e-7,1.6619134e-7,2.4347008,-361.47041,-226.79239)"
       cx="228.57143"
       cy="158.07646"
       fx="228.57143"
       fy="158.07646"
       r="67.214287" />
    <radialGradient
       inkscape:collect="always"
       xlink:href="#linearGradient6610-0-9-44-9"
       id="radialGradient1962"
       gradientUnits="userSpaceOnUse"
       gradientTransform="matrix(2.5814329,-1.7620719e-7,1.6619134e-7,2.4347008,-361.47041,-226.79239)"
       cx="228.57143"
       cy="158.07646"
       fx="228.57143"
       fy="158.07646"
       r="67.214287" />
  </defs>
  <sodipodi:namedview
     id="base"
     pagecolor="#ffffff"
     bordercolor="#666666"
     borderopacity="1.0"
     inkscape:pageopacity="0.0"
     inkscape:pageshadow="2"
     inkscape:zoom="1.1516953"
     inkscape:cx="445.67798"
     inkscape:cy="115.33664"
     inkscape:document-units="px"
     inkscape:current-layer="layer1"
     showgrid="false"
     inkscape:window-width="1916"
     inkscape:window-height="1056"
     inkscape:window-x="0"
     inkscape:window-y="20"
     inkscape:window-maximized="1"
     inkscape:document-rotation="0"
     showguides="true"
     inkscape:guide-bbox="true"
     fit-margin-top="0"
     fit-margin-left="0"
     fit-margin-right="0"
     fit-margin-bottom="0" />
  <metadata
     id="metadata20869">
    <rdf:RDF>
      <cc:Work
         rdf:about="">
        <dc:format>image/svg+xml</dc:format>
        <dc:type
           rdf:resource="http://purl.org/dc/dcmitype/StillImage" />
        <dc:title></dc:title>
      </cc:Work>
    </rdf:RDF>
  </metadata>
  <g
     inkscape:label="Layer 1"
     inkscape:groupmode="layer"
     id="layer1"
     transform="translate(398.28748,-388.4938)">
    <g
       transform="translate(1644.0936,-282.37111)"
       id="g9160-4">
      <rect
         style="fill:url(#radialGradient19836);fill-opacity:1;stroke:#000000;stroke-width:3.20333;stroke-miterlimit:4;stroke-dasharray:none;stroke-opacity:1"
         id="rect3623-1-5-8-4"
         width="240.61978"
         height="422.05856"
         x="-571.63727"
         y="135.32373"
         rx="10.000001"
         ry="10" />
      <text
         xml:space="preserve"
         style="font-style:normal;font-weight:normal;line-height:0%;font-family:'Bitstream Vera Sans';text-align:center;text-anchor:middle;fill:#000000;fill-opacity:1;stroke:none"
         x="-456.39566"
         y="178.28261"
         id="text3918-5-9-4"><tspan
           sodipodi:role="line"
           x="-456.39566"
           y="178.28261"
           id="tspan3922-6-3-4"
           style="font-size:40px;line-height:1.25">Repository</tspan></text>
      <g
         transform="matrix(0.78758333,0,0,0.78758333,-90.41655,-87.842002)"
         id="g7114-50-4">
        <circle
           style="fill:url(#radialGradient19838);fill-opacity:1;stroke:#000000;stroke-width:4.00085;stroke-miterlimit:4;stroke-dasharray:none;stroke-opacity:1"
           id="path2816-8-6-8-9-7"
           transform="matrix(0.82966712,0,0,0.82966712,-647.88917,273.77429)"
           cx="228.57143"
           cy="158.07646"
           r="65.714287" />
        <text
           xml:space="preserve"
           style="font-style:normal;font-weight:normal;line-height:0%;font-family:'Bitstream Vera Sans';fill:#000000;fill-opacity:1;stroke:none"
           x="-492.78027"
           y="413.67319"
           id="text4210-7-0-2-4-6-7"><tspan
             sodipodi:role="line"
             id="tspan4212-2-4-9-3-9-7"
             x="-492.78027"
             y="413.67319"
             style="font-size:24px;line-height:1.25">HEAD</tspan></text>
      </g>
      <g
         transform="matrix(0.78758333,0,0,0.78758333,-90.41655,-87.842002)"
         id="g7122-0-6">
        <circle
           style="fill:url(#radialGradient19840);fill-opacity:1;stroke:#000000;stroke-width:4.00085;stroke-miterlimit:4;stroke-dasharray:none;stroke-opacity:1"
           id="path2816-8-6-5-2-6"
           transform="matrix(0.82966712,0,0,0.82966712,-647.88917,415.26638)"
           cx="228.57143"
           cy="158.07646"
           r="65.714287" />
        <text
           xml:space="preserve"
           style="font-style:normal;font-weight:normal;line-height:0%;font-family:'Bitstream Vera Sans';fill:#000000;fill-opacity:1;stroke:none"
           x="-510.06543"
           y="555.32349"
           id="text4210-7-0-2-3-6-3"><tspan
             sodipodi:role="line"
             id="tspan4212-2-4-9-9-19-9"
             x="-510.06543"
             y="555.32349"
             style="font-size:24px;line-height:1.25">HEAD~1</tspan></text>
      </g>
      <text
         xml:space="preserve"
         style="font-style:normal;font-weight:normal;line-height:0%;font-family:'Bitstream Vera Sans';text-align:center;text-anchor:middle;fill:#000000;fill-opacity:1;stroke:none"
         x="-451.30429"
         y="536.34485"
         id="text3918-5-6-1-8"><tspan
           sodipodi:role="line"
           x="-451.30429"
           y="536.34485"
           id="tspan3922-6-8-56-7"
           style="font-size:31.5033px;line-height:1.25">...</tspan></text>
      <g
         transform="matrix(0.78758333,0,0,0.78758333,-94.64136,-86.083676)"
         id="g6829-9-4">
        <g
           id="g7135-5-3">
          <circle
             transform="matrix(0.82966712,0,0,0.82966712,-642.52491,554.52596)"
             id="path2816-8-6-5-4-8-6"
             style="fill:url(#radialGradient19842);fill-opacity:1;stroke:#000000;stroke-width:4.00085;stroke-miterlimit:4;stroke-dasharray:none;stroke-opacity:1"
             cx="228.57143"
             cy="158.07646"
             r="65.714287" />
          <text
             id="text4210-7-0-2-3-9-8-0"
             y="694.42487"
             x="-504.60742"
             style="font-style:normal;font-weight:normal;line-height:0%;font-family:'Bitstream Vera Sans';fill:#000000;fill-opacity:1;stroke:none"
             xml:space="preserve"><tspan
               y="694.42487"
               x="-504.60742"
               sodipodi:role="line"
               id="tspan7127-42-1"
               style="font-size:24px;line-height:1.25">HEAD~2</tspan></text>
        </g>
      </g>
      <path
         sodipodi:nodetypes="cc"
         id="path6842-7-5"
         d="M -451.29856,411.1331 V 387.26572"
         style="fill:none;stroke:#000000;stroke-width:3;stroke-linecap:butt;stroke-linejoin:miter;stroke-miterlimit:4;stroke-dasharray:none;stroke-opacity:1;marker-end:url(#marker5271)" />
      <path
         sodipodi:nodetypes="cc"
         id="path6842-9-37-9"
         d="M -451.29856,299.69626 V 275.82889"
         style="fill:none;stroke:#000000;stroke-width:3;stroke-linecap:butt;stroke-linejoin:miter;stroke-miterlimit:4;stroke-dasharray:none;stroke-opacity:1;marker-end:url(#marker5271)" />
      <path
         sodipodi:nodetypes="cc"
         id="path6842-6-1-5"
         d="M -451.29856,523.96609 V 500.0987"
         style="fill:none;stroke:#000000;stroke-width:3;stroke-linecap:butt;stroke-linejoin:miter;stroke-miterlimit:4;stroke-dasharray:none;stroke-opacity:1;marker-end:url(#marker5271)" />
    </g>
    <path
       style="fill:none;stroke:#000000;stroke-width:3;stroke-linecap:butt;stroke-linejoin:miter;stroke-miterlimit:4;stroke-dasharray:none;stroke-dashoffset:0;stroke-opacity:1;marker-end:none"
       d="M 917.65963,131.36389 1149.7136,-48.13902"
       id="path3047-9-5-9-21-7"
       sodipodi:nodetypes="cc" />
    <text
       xml:space="preserve"
       style="font-style:normal;font-weight:normal;line-height:0%;font-family:'Bitstream Vera Sans';fill:#000000;fill-opacity:1;stroke:none"
       x="772.78986"
       y="-75.543732"
       id="text4210-8-7-8"><tspan
         sodipodi:role="line"
         x="772.78986"
         y="-75.543732"
         id="tspan4333-6-0-3"
         style="font-size:28.1909px;line-height:1.25">git diff HEAD</tspan></text>
    <path
       style="fill:#000000;stroke:#000000;stroke-width:3;stroke-linecap:butt;stroke-linejoin:miter;stroke-miterlimit:4;stroke-dasharray:none;stroke-dashoffset:0;stroke-opacity:1;marker-end:none"
       d="M 694.99677,-65.04822 H 1152.373"
       id="path3047-93-9-1"
       sodipodi:nodetypes="cc" />
    <text
       xml:space="preserve"
       style="font-style:italic;font-weight:bold;line-height:0%;font-family:'Bitstream Vera Sans';-inkscape-font-specification:'Andale Mono Bold';text-align:center;text-anchor:middle;fill:#000000;fill-opacity:1;stroke:none"
       x="862.75977"
       y="-35.327419"
       id="text4210-8-7-5-5"><tspan
         sodipodi:role="line"
         x="862.75977"
         y="-35.327419"
         id="tspan9612"
         style="font-size:28.1909px;line-height:1.25">NO CHANGES</tspan></text>
    <path
       sodipodi:type="star"
       style="fill:url(#radialGradient19844);fill-opacity:1;stroke:#000000;stroke-width:1.37466;stroke-miterlimit:4;stroke-dasharray:none;stroke-opacity:1"
       id="path3639-3-56-7"
       sodipodi:sides="3"
       sodipodi:cx="370.71429"
       sodipodi:cy="227.36218"
       sodipodi:r1="52.186871"
       sodipodi:r2="26.093435"
       sodipodi:arg1="0.52359878"
       sodipodi:arg2="1.5707963"
       inkscape:flatsided="false"
       inkscape:rounded="0"
       inkscape:randomized="0"
       transform="matrix(2.1794371,0,0,2.1852983,59.6382,-335.12561)"
       d="m 415.90945,253.45562 -45.19515,0 -45.19516,0 22.59758,-39.14015 22.59757,-39.14016 22.59758,39.14015 z" />
    <text
       xml:space="preserve"
       style="font-style:normal;font-weight:normal;line-height:0%;font-family:'Bitstream Vera Sans';fill:#000000;fill-opacity:1;stroke:none"
       x="813.56818"
       y="174.66605"
       id="text4372-3-9-7"><tspan
         sodipodi:role="line"
         id="tspan4374-7-3-2"
         x="813.56818"
         y="174.66605"
         style="font-size:40px;line-height:1.25">Index</tspan></text>
    <path
       style="fill:none;stroke:#000000;stroke-width:3;stroke-linecap:butt;stroke-linejoin:miter;stroke-miterlimit:4;stroke-dasharray:none;stroke-dashoffset:0;stroke-opacity:1;marker-end:none"
       d="M 646.9827,13.27372 822.52966,126.89304"
       id="path3047-9-5-4-6"
       sodipodi:nodetypes="cc" />
    <text
       xml:space="preserve"
       style="font-style:normal;font-weight:normal;line-height:0%;font-family:'Bitstream Vera Sans';fill:#000000;fill-opacity:1;stroke:none"
       x="573.39557"
       y="-390.43137"
       id="text4210-0-7-2-3"
       transform="rotate(36.572742)"><tspan
         sodipodi:role="line"
         x="573.39557"
         y="-390.43137"
         id="tspan4333-7-1-9-2"
         style="font-size:28.1909px;line-height:1.25">git diff</tspan></text>
    <circle
       style="fill:url(#radialGradient19846);fill-opacity:1;stroke:#000000;stroke-width:2.61429;stroke-miterlimit:4;stroke-dasharray:none;stroke-opacity:1"
       id="path2816-8-5-1"
       cx="608.85541"
       cy="-64.363342"
       r="85.835709" />
    <text
       xml:space="preserve"
       style="font-style:normal;font-weight:normal;line-height:0%;font-family:'Bitstream Vera Sans';text-align:center;text-anchor:middle;fill:#000000;fill-opacity:1;stroke:none"
       x="609.83197"
       y="-63.594082"
       id="text3003-0-9-4"><tspan
         sodipodi:role="line"
         id="tspan3005-7-70-3"
         x="609.83197"
         y="-63.594082"
         style="font-size:40px;line-height:1.25">working</tspan><tspan
         sodipodi:role="line"
         x="609.83197"
         y="-13.594082"
         id="tspan3007-3-3-4"
         style="font-size:40px;line-height:1.25">tree</tspan></text>
    <text
       xml:space="preserve"
       style="font-style:italic;font-weight:bold;line-height:0%;font-family:'Bitstream Vera Sans';-inkscape-font-specification:'Andale Mono Bold';text-align:center;text-anchor:middle;fill:#000000;fill-opacity:1;stroke:none"
       x="686.78009"
       y="83.00174"
       id="text4210-8-7-5-5-8"><tspan
         sodipodi:role="line"
         x="686.78009"
         y="83.00174"
         id="tspan10315"
         style="font-size:28.1909px;line-height:1.25">NO</tspan><tspan
         sodipodi:role="line"
         x="686.78009"
         y="118.24036"
         id="tspan7444"
         style="font-size:28.1909px;line-height:1.25">CHANGES</tspan></text>
    <text
       xml:space="preserve"
       style="font-style:normal;font-weight:normal;line-height:0%;font-family:'Bitstream Vera Sans';fill:#000000;fill-opacity:1;stroke:none"
       x="667.0932"
       y="640.76477"
       id="text4210-0-7-8-1-9"
       transform="rotate(-36.642496)"><tspan
         sodipodi:role="line"
         x="667.0932"
         y="640.76477"
         id="tspan4333-7-1-3-7-6"
         style="font-size:28.1909px;line-height:1.25">git diff --cached</tspan></text>
    <text
       xml:space="preserve"
       style="font-style:italic;font-weight:normal;line-height:0%;font-family:'Bitstream Vera Sans';-inkscape-font-specification:'Andale Mono Italic';text-align:center;text-anchor:middle;fill:#000000;fill-opacity:1;stroke:none"
       x="1035.2771"
       y="84.656372"
       id="text4210-8-7-5-5-8-0-2"><tspan
         sodipodi:role="line"
         x="1035.2771"
         y="84.656372"
         id="tspan11802-65"
         style="font-weight:bold;font-size:28.1909px;line-height:1.25;-inkscape-font-specification:'Andale Mono Bold'">NO</tspan><tspan
         sodipodi:role="line"
         x="1035.2771"
         y="119.895"
         id="tspan11849-6"
         style="font-weight:bold;font-size:28.1909px;line-height:1.25;-inkscape-font-specification:'Andale Mono Bold'">CHANGES</tspan></text>
    <g
       transform="translate(724.09363,-282.37111)"
       id="g1360">
      <rect
         style="fill:url(#radialGradient1414);fill-opacity:1;stroke:#000000;stroke-width:3.20333;stroke-miterlimit:4;stroke-dasharray:none;stroke-opacity:1"
         id="rect1318"
         width="240.61978"
         height="422.05856"
         x="-571.63727"
         y="135.32373"
         rx="10.000001"
         ry="10" />
      <text
         xml:space="preserve"
         style="font-style:normal;font-weight:normal;line-height:0%;font-family:'Bitstream Vera Sans';text-align:center;text-anchor:middle;fill:#000000;fill-opacity:1;stroke:none"
         x="-456.39566"
         y="178.28261"
         id="text1322"><tspan
           sodipodi:role="line"
           x="-456.39566"
           y="178.28261"
           id="tspan1320"
           style="font-size:40px;line-height:1.25">Repository</tspan></text>
      <g
         transform="matrix(0.78758333,0,0,0.78758333,-90.41655,-87.842002)"
         id="g1330">
        <circle
           style="fill:url(#radialGradient1416);fill-opacity:1;stroke:#000000;stroke-width:4.00085;stroke-miterlimit:4;stroke-dasharray:none;stroke-opacity:1"
           id="path1324"
           transform="matrix(0.82966712,0,0,0.82966712,-647.88917,273.77429)"
           cx="228.57143"
           cy="158.07646"
           r="65.714287" />
        <text
           xml:space="preserve"
           style="font-style:normal;font-weight:normal;line-height:0%;font-family:'Bitstream Vera Sans';fill:#000000;fill-opacity:1;stroke:none"
           x="-492.78027"
           y="413.67319"
           id="text1328"><tspan
             sodipodi:role="line"
             id="tspan1326"
             x="-492.78027"
             y="413.67319"
             style="font-size:24px;line-height:1.25">HEAD</tspan></text>
      </g>
      <g
         transform="matrix(0.78758333,0,0,0.78758333,-90.41655,-87.842002)"
         id="g1338">
        <circle
           style="fill:url(#radialGradient1418);fill-opacity:1;stroke:#000000;stroke-width:4.00085;stroke-miterlimit:4;stroke-dasharray:none;stroke-opacity:1"
           id="path1332"
           transform="matrix(0.82966712,0,0,0.82966712,-647.88917,415.26638)"
           cx="228.57143"
           cy="158.07646"
           r="65.714287" />
        <text
           xml:space="preserve"
           style="font-style:normal;font-weight:normal;line-height:0%;font-family:'Bitstream Vera Sans';fill:#000000;fill-opacity:1;stroke:none"
           x="-510.06543"
           y="555.32349"
           id="text1336"><tspan
             sodipodi:role="line"
             id="tspan1334"
             x="-510.06543"
             y="555.32349"
             style="font-size:24px;line-height:1.25">HEAD~1</tspan></text>
      </g>
      <text
         xml:space="preserve"
         style="font-style:normal;font-weight:normal;line-height:0%;font-family:'Bitstream Vera Sans';text-align:center;text-anchor:middle;fill:#000000;fill-opacity:1;stroke:none"
         x="-451.30429"
         y="536.34485"
         id="text1342"><tspan
           sodipodi:role="line"
           x="-451.30429"
           y="536.34485"
           id="tspan1340"
           style="font-size:31.5033px;line-height:1.25">...</tspan></text>
      <g
         transform="matrix(0.78758333,0,0,0.78758333,-94.64136,-86.083676)"
         id="g1352">
        <g
           id="g1350">
          <circle
             transform="matrix(0.82966712,0,0,0.82966712,-642.52491,554.52596)"
             id="path1344"
             style="fill:url(#radialGradient1420);fill-opacity:1;stroke:#000000;stroke-width:4.00085;stroke-miterlimit:4;stroke-dasharray:none;stroke-opacity:1"
             cx="228.57143"
             cy="158.07646"
             r="65.714287" />
          <text
             id="text1348"
             y="694.42487"
             x="-504.60742"
             style="font-style:normal;font-weight:normal;line-height:0%;font-family:'Bitstream Vera Sans';fill:#000000;fill-opacity:1;stroke:none"
             xml:space="preserve"><tspan
               y="694.42487"
               x="-504.60742"
               sodipodi:role="line"
               id="tspan1346"
               style="font-size:24px;line-height:1.25">HEAD~2</tspan></text>
        </g>
      </g>
      <path
         sodipodi:nodetypes="cc"
         id="path1354"
         d="M -451.29856,411.1331 V 387.26572"
         style="fill:none;stroke:#000000;stroke-width:3;stroke-linecap:butt;stroke-linejoin:miter;stroke-miterlimit:4;stroke-dasharray:none;stroke-opacity:1;marker-end:url(#marker5271)" />
      <path
         sodipodi:nodetypes="cc"
         id="path1356"
         d="M -451.29856,299.69626 V 275.82889"
         style="fill:none;stroke:#000000;stroke-width:3;stroke-linecap:butt;stroke-linejoin:miter;stroke-miterlimit:4;stroke-dasharray:none;stroke-opacity:1;marker-end:url(#marker5271)" />
      <path
         sodipodi:nodetypes="cc"
         id="path1358"
         d="M -451.29856,523.96609 V 500.0987"
         style="fill:none;stroke:#000000;stroke-width:3;stroke-linecap:butt;stroke-linejoin:miter;stroke-miterlimit:4;stroke-dasharray:none;stroke-opacity:1;marker-end:url(#marker5271)" />
    </g>
    <path
       style="fill:none;stroke:#000000;stroke-width:3;stroke-linecap:butt;stroke-linejoin:miter;stroke-miterlimit:4;stroke-dasharray:none;stroke-dashoffset:0;stroke-opacity:1;marker-end:none"
       d="m -2.34037,131.36389 232.054,-179.50291"
       id="path1362"
       sodipodi:nodetypes="cc" />
    <path
       style="fill:#000000;stroke:#000000;stroke-width:3;stroke-linecap:butt;stroke-linejoin:miter;stroke-miterlimit:4;stroke-dasharray:none;stroke-dashoffset:0;stroke-opacity:1;marker-end:none"
       d="M -225.00323,-65.04822 H 232.37296"
       id="path1368"
       sodipodi:nodetypes="cc" />
    <path
       sodipodi:type="star"
       style="fill:url(#radialGradient1422);fill-opacity:1;stroke:#000000;stroke-width:1.37466;stroke-miterlimit:4;stroke-dasharray:none;stroke-opacity:1"
       id="path1374"
       sodipodi:sides="3"
       sodipodi:cx="370.71429"
       sodipodi:cy="227.36218"
       sodipodi:r1="52.186871"
       sodipodi:r2="26.093435"
       sodipodi:arg1="0.52359878"
       sodipodi:arg2="1.5707963"
       inkscape:flatsided="false"
       inkscape:rounded="0"
       inkscape:randomized="0"
       transform="matrix(2.1794371,0,0,2.1852983,-860.3618,-335.12561)"
       d="m 415.90945,253.45562 -45.19515,0 -45.19516,0 22.59758,-39.14015 22.59757,-39.14016 22.59758,39.14015 z" />
    <text
       xml:space="preserve"
       style="font-style:normal;font-weight:normal;line-height:0%;font-family:'Bitstream Vera Sans';fill:#000000;fill-opacity:1;stroke:none"
       x="-106.43181"
       y="174.66605"
       id="text1378"><tspan
         sodipodi:role="line"
         id="tspan1376"
         x="-106.43181"
         y="174.66605"
         style="font-size:40px;line-height:1.25">Index</tspan></text>
    <path
       style="fill:none;stroke:#000000;stroke-width:3;stroke-linecap:butt;stroke-linejoin:miter;stroke-miterlimit:4;stroke-dasharray:none;stroke-dashoffset:0;stroke-opacity:1;marker-end:none"
       d="M -273.0173,13.27372 -97.47034,126.89304"
       id="path1380"
       sodipodi:nodetypes="cc" />
    <circle
       style="fill:url(#radialGradient1424);fill-opacity:1;stroke:#000000;stroke-width:2.61429;stroke-miterlimit:4;stroke-dasharray:none;stroke-opacity:1"
       id="path1386"
       cx="-311.14462"
       cy="-64.363342"
       r="85.835709" />
    <text
       xml:space="preserve"
       style="font-style:normal;font-weight:normal;line-height:0%;font-family:'Bitstream Vera Sans';text-align:center;text-anchor:middle;fill:#000000;fill-opacity:1;stroke:none"
       x="-310.16803"
       y="-63.594082"
       id="text1392"><tspan
         sodipodi:role="line"
         id="tspan1388"
         x="-310.16803"
         y="-63.594082"
         style="font-size:40px;line-height:1.25">working</tspan><tspan
         sodipodi:role="line"
         x="-310.16803"
         y="-13.594082"
         id="tspan1390"
         style="font-size:40px;line-height:1.25">tree</tspan></text>
    <g
       transform="translate(724.09363,257.62889)"
       id="g1608">
      <rect
         style="fill:url(#radialGradient1660);fill-opacity:1;stroke:#000000;stroke-width:3.20333;stroke-miterlimit:4;stroke-dasharray:none;stroke-opacity:1"
         id="rect1566"
         width="240.61978"
         height="422.05856"
         x="-571.63727"
         y="135.32373"
         rx="10.000001"
         ry="10" />
      <text
         xml:space="preserve"
         style="font-style:normal;font-weight:normal;line-height:0%;font-family:'Bitstream Vera Sans';text-align:center;text-anchor:middle;fill:#000000;fill-opacity:1;stroke:none"
         x="-456.39566"
         y="178.28261"
         id="text1570"><tspan
           sodipodi:role="line"
           x="-456.39566"
           y="178.28261"
           id="tspan1568"
           style="font-size:40px;line-height:1.25">Repository</tspan></text>
      <g
         transform="matrix(0.78758333,0,0,0.78758333,-90.41655,-87.842002)"
         id="g1578">
        <circle
           style="fill:url(#radialGradient1662);fill-opacity:1;stroke:#000000;stroke-width:4.00085;stroke-miterlimit:4;stroke-dasharray:none;stroke-opacity:1"
           id="circle1572"
           transform="matrix(0.82966712,0,0,0.82966712,-647.88917,273.77429)"
           cx="228.57143"
           cy="158.07646"
           r="65.714287" />
        <text
           xml:space="preserve"
           style="font-style:normal;font-weight:normal;line-height:0%;font-family:'Bitstream Vera Sans';fill:#000000;fill-opacity:1;stroke:none"
           x="-492.78027"
           y="413.67319"
           id="text1576"><tspan
             sodipodi:role="line"
             id="tspan1574"
             x="-492.78027"
             y="413.67319"
             style="font-size:24px;line-height:1.25">HEAD</tspan></text>
      </g>
      <g
         transform="matrix(0.78758333,0,0,0.78758333,-90.41655,-87.842002)"
         id="g1586">
        <circle
           style="fill:url(#radialGradient1664);fill-opacity:1;stroke:#000000;stroke-width:4.00085;stroke-miterlimit:4;stroke-dasharray:none;stroke-opacity:1"
           id="circle1580"
           transform="matrix(0.82966712,0,0,0.82966712,-647.88917,415.26638)"
           cx="228.57143"
           cy="158.07646"
           r="65.714287" />
        <text
           xml:space="preserve"
           style="font-style:normal;font-weight:normal;line-height:0%;font-family:'Bitstream Vera Sans';fill:#000000;fill-opacity:1;stroke:none"
           x="-510.06543"
           y="555.32349"
           id="text1584"><tspan
             sodipodi:role="line"
             id="tspan1582"
             x="-510.06543"
             y="555.32349"
             style="font-size:24px;line-height:1.25">HEAD~1</tspan></text>
      </g>
      <text
         xml:space="preserve"
         style="font-style:normal;font-weight:normal;line-height:0%;font-family:'Bitstream Vera Sans';text-align:center;text-anchor:middle;fill:#000000;fill-opacity:1;stroke:none"
         x="-451.30429"
         y="536.34485"
         id="text1590"><tspan
           sodipodi:role="line"
           x="-451.30429"
           y="536.34485"
           id="tspan1588"
           style="font-size:31.5033px;line-height:1.25">...</tspan></text>
      <g
         transform="matrix(0.78758333,0,0,0.78758333,-94.64136,-86.083676)"
         id="g1600">
        <g
           id="g1598">
          <circle
             transform="matrix(0.82966712,0,0,0.82966712,-642.52491,554.52596)"
             id="circle1592"
             style="fill:url(#radialGradient1666);fill-opacity:1;stroke:#000000;stroke-width:4.00085;stroke-miterlimit:4;stroke-dasharray:none;stroke-opacity:1"
             cx="228.57143"
             cy="158.07646"
             r="65.714287" />
          <text
             id="text1596"
             y="694.42487"
             x="-504.60742"
             style="font-style:normal;font-weight:normal;line-height:0%;font-family:'Bitstream Vera Sans';fill:#000000;fill-opacity:1;stroke:none"
             xml:space="preserve"><tspan
               y="694.42487"
               x="-504.60742"
               sodipodi:role="line"
               id="tspan1594"
               style="font-size:24px;line-height:1.25">HEAD~2</tspan></text>
        </g>
      </g>
      <path
         sodipodi:nodetypes="cc"
         id="path1602"
         d="M -451.29856,411.1331 V 387.26572"
         style="fill:none;stroke:#000000;stroke-width:3;stroke-linecap:butt;stroke-linejoin:miter;stroke-miterlimit:4;stroke-dasharray:none;stroke-opacity:1;marker-end:url(#marker5271)" />
      <path
         sodipodi:nodetypes="cc"
         id="path1604"
         d="M -451.29856,299.69626 V 275.82889"
         style="fill:none;stroke:#000000;stroke-width:3;stroke-linecap:butt;stroke-linejoin:miter;stroke-miterlimit:4;stroke-dasharray:none;stroke-opacity:1;marker-end:url(#marker5271)" />
      <path
         sodipodi:nodetypes="cc"
         id="path1606"
         d="M -451.29856,523.96609 V 500.0987"
         style="fill:none;stroke:#000000;stroke-width:3;stroke-linecap:butt;stroke-linejoin:miter;stroke-miterlimit:4;stroke-dasharray:none;stroke-opacity:1;marker-end:url(#marker5271)" />
    </g>
    <path
       style="fill:none;stroke:#000000;stroke-width:2;stroke-linecap:butt;stroke-linejoin:miter;stroke-miterlimit:4;stroke-dasharray:none;stroke-dashoffset:0;stroke-opacity:1;marker-end:none"
       d="m -2.34037,671.3639 232.054,-179.50292"
       id="path1610"
       sodipodi:nodetypes="cc" />
    <text
       xml:space="preserve"
       style="font-style:normal;font-weight:normal;line-height:0%;font-family:'Bitstream Vera Sans';fill:#000000;fill-opacity:1;stroke:none"
       x="-147.21013"
       y="464.4563"
       id="text1614"><tspan
         sodipodi:role="line"
         x="-147.21013"
         y="464.4563"
         id="tspan1612"
         style="font-size:28.1909px;line-height:1.25">git diff HEAD</tspan></text>
    <path
       style="fill:#000000;stroke:#000000;stroke-width:2;stroke-linecap:butt;stroke-linejoin:miter;stroke-miterlimit:4;stroke-dasharray:none;stroke-dashoffset:0;stroke-opacity:1;marker-end:none"
       d="M -225.00323,474.95178 H 232.37296"
       id="path1616"
       sodipodi:nodetypes="cc" />
    <text
       xml:space="preserve"
       style="font-style:italic;font-weight:bold;line-height:0%;font-family:'Bitstream Vera Sans';-inkscape-font-specification:'Andale Mono Bold';text-align:center;text-anchor:middle;fill:#000000;fill-opacity:1;stroke:none"
       x="-57.240219"
       y="504.67261"
       id="text1620"><tspan
         sodipodi:role="line"
         x="-57.240219"
         y="504.67261"
         id="tspan1618"
         style="font-size:28.1909px;line-height:1.25">CHANGES</tspan></text>
    <path
       sodipodi:type="star"
       style="fill:url(#radialGradient1668);fill-opacity:1;stroke:#000000;stroke-width:1.37466;stroke-miterlimit:4;stroke-dasharray:none;stroke-opacity:1"
       id="path1622"
       sodipodi:sides="3"
       sodipodi:cx="370.71429"
       sodipodi:cy="227.36218"
       sodipodi:r1="52.186871"
       sodipodi:r2="26.093435"
       sodipodi:arg1="0.52359878"
       sodipodi:arg2="1.5707963"
       inkscape:flatsided="false"
       inkscape:rounded="0"
       inkscape:randomized="0"
       transform="matrix(2.1794371,0,0,2.1852983,-860.3618,204.87439)"
       d="m 415.90945,253.45562 -45.19515,0 -45.19516,0 22.59758,-39.14015 22.59757,-39.14016 22.59758,39.14015 z" />
    <text
       xml:space="preserve"
       style="font-style:normal;font-weight:normal;line-height:0%;font-family:'Bitstream Vera Sans';fill:#000000;fill-opacity:1;stroke:none"
       x="-106.43181"
       y="714.66602"
       id="text1626"><tspan
         sodipodi:role="line"
         id="tspan1624"
         x="-106.43181"
         y="714.66602"
         style="font-size:40px;line-height:1.25">Index</tspan></text>
    <path
       style="fill:none;stroke:#000000;stroke-width:2;stroke-linecap:butt;stroke-linejoin:miter;stroke-miterlimit:4;stroke-dasharray:none;stroke-dashoffset:0;stroke-opacity:1;marker-end:none"
       d="M -273.0173,553.2737 -97.47034,666.893"
       id="path1628"
       sodipodi:nodetypes="cc" />
    <text
       xml:space="preserve"
       style="font-style:normal;font-weight:normal;line-height:0%;font-family:'Bitstream Vera Sans';fill:#000000;fill-opacity:1;stroke:none"
       x="156.29762"
       y="591.41882"
       id="text1632"
       transform="rotate(36.572742)"><tspan
         sodipodi:role="line"
         x="156.29762"
         y="591.41882"
         id="tspan1630"
         style="font-size:28.1909px;line-height:1.25">git diff</tspan></text>
    <circle
       style="fill:url(#radialGradient1670);fill-opacity:1;stroke:#ff0000;stroke-width:2.61429;stroke-miterlimit:4;stroke-dasharray:none;stroke-opacity:1"
       id="circle1634"
       cx="-311.14462"
       cy="475.63666"
       r="85.835709" />
    <text
       xml:space="preserve"
       style="font-style:normal;font-weight:normal;line-height:0%;font-family:'Bitstream Vera Sans';text-align:center;text-anchor:middle;fill:#000000;fill-opacity:1;stroke:none"
       x="-310.16803"
       y="476.40594"
       id="text1640"><tspan
         sodipodi:role="line"
         id="tspan1636"
         x="-310.16803"
         y="476.40594"
         style="font-size:40px;line-height:1.25">working</tspan><tspan
         sodipodi:role="line"
         x="-310.16803"
         y="526.40594"
         id="tspan1638"
         style="font-size:40px;line-height:1.25">tree</tspan></text>
    <text
       xml:space="preserve"
       style="font-style:italic;font-weight:bold;line-height:0%;font-family:'Bitstream Vera Sans';-inkscape-font-specification:'Andale Mono Bold';text-align:center;text-anchor:middle;fill:#000000;fill-opacity:1;stroke:none"
       x="-248.21678"
       y="647.00171"
       id="text1646"><tspan
         sodipodi:role="line"
         x="-248.21678"
         y="647.00171"
         id="tspan1644"
         style="font-size:28.1909px;line-height:1.25">CHANGES</tspan></text>
    <text
       xml:space="preserve"
       style="font-style:normal;font-weight:normal;line-height:0%;font-family:'Bitstream Vera Sans';fill:#000000;fill-opacity:1;stroke:none"
       x="-393.37476"
       y="524.97314"
       id="text1650"
       transform="rotate(-36.642496)"><tspan
         sodipodi:role="line"
         x="-393.37476"
         y="524.97314"
         id="tspan1648"
         style="font-size:28.1909px;line-height:1.25">git diff --cached</tspan></text>
    <text
       xml:space="preserve"
       style="font-style:italic;font-weight:normal;line-height:0%;font-family:'Bitstream Vera Sans';-inkscape-font-specification:'Andale Mono Italic';text-align:center;text-anchor:middle;fill:#000000;fill-opacity:1;stroke:none"
       x="115.27705"
       y="624.65637"
       id="text1656"><tspan
         sodipodi:role="line"
         x="115.27705"
         y="624.65637"
         id="tspan1652"
         style="font-weight:bold;font-size:28.1909px;line-height:1.25;-inkscape-font-specification:'Andale Mono Bold'">NO</tspan><tspan
         sodipodi:role="line"
         x="115.27705"
         y="659.89502"
         id="tspan1654"
         style="font-weight:bold;font-size:28.1909px;line-height:1.25;-inkscape-font-specification:'Andale Mono Bold'">CHANGES</tspan></text>
    <g
       transform="translate(1644.0936,257.62889)"
       id="g1904">
      <rect
         style="fill:url(#radialGradient1956);fill-opacity:1;stroke:#000000;stroke-width:3.20333;stroke-miterlimit:4;stroke-dasharray:none;stroke-opacity:1"
         id="rect1862"
         width="240.61978"
         height="422.05856"
         x="-571.63727"
         y="135.32373"
         rx="10.000001"
         ry="10" />
      <text
         xml:space="preserve"
         style="font-style:normal;font-weight:normal;line-height:0%;font-family:'Bitstream Vera Sans';text-align:center;text-anchor:middle;fill:#000000;fill-opacity:1;stroke:none"
         x="-456.39566"
         y="178.28261"
         id="text1866"><tspan
           sodipodi:role="line"
           x="-456.39566"
           y="178.28261"
           id="tspan1864"
           style="font-size:40px;line-height:1.25">Repository</tspan></text>
      <g
         transform="matrix(0.78758333,0,0,0.78758333,-90.41655,-87.842002)"
         id="g1874">
        <circle
           style="fill:url(#radialGradient1958);fill-opacity:1;stroke:#000000;stroke-width:4.00085;stroke-miterlimit:4;stroke-dasharray:none;stroke-opacity:1"
           id="circle1868"
           transform="matrix(0.82966712,0,0,0.82966712,-647.88917,273.77429)"
           cx="228.57143"
           cy="158.07646"
           r="65.714287" />
        <text
           xml:space="preserve"
           style="font-style:normal;font-weight:normal;line-height:0%;font-family:'Bitstream Vera Sans';fill:#000000;fill-opacity:1;stroke:none"
           x="-492.78027"
           y="413.67319"
           id="text1872"><tspan
             sodipodi:role="line"
             id="tspan1870"
             x="-492.78027"
             y="413.67319"
             style="font-size:24px;line-height:1.25">HEAD</tspan></text>
      </g>
      <g
         transform="matrix(0.78758333,0,0,0.78758333,-90.41655,-87.842002)"
         id="g1882">
        <circle
           style="fill:url(#radialGradient1960);fill-opacity:1;stroke:#000000;stroke-width:4.00085;stroke-miterlimit:4;stroke-dasharray:none;stroke-opacity:1"
           id="circle1876"
           transform="matrix(0.82966712,0,0,0.82966712,-647.88917,415.26638)"
           cx="228.57143"
           cy="158.07646"
           r="65.714287" />
        <text
           xml:space="preserve"
           style="font-style:normal;font-weight:normal;line-height:0%;font-family:'Bitstream Vera Sans';fill:#000000;fill-opacity:1;stroke:none"
           x="-510.06543"
           y="555.32349"
           id="text1880"><tspan
             sodipodi:role="line"
             id="tspan1878"
             x="-510.06543"
             y="555.32349"
             style="font-size:24px;line-height:1.25">HEAD~1</tspan></text>
      </g>
      <text
         xml:space="preserve"
         style="font-style:normal;font-weight:normal;line-height:0%;font-family:'Bitstream Vera Sans';text-align:center;text-anchor:middle;fill:#000000;fill-opacity:1;stroke:none"
         x="-451.30429"
         y="536.34485"
         id="text1886"><tspan
           sodipodi:role="line"
           x="-451.30429"
           y="536.34485"
           id="tspan1884"
           style="font-size:31.5033px;line-height:1.25">...</tspan></text>
      <g
         transform="matrix(0.78758333,0,0,0.78758333,-94.64136,-86.083676)"
         id="g1896">
        <g
           id="g1894">
          <circle
             transform="matrix(0.82966712,0,0,0.82966712,-642.52491,554.52596)"
             id="circle1888"
             style="fill:url(#radialGradient1962);fill-opacity:1;stroke:#000000;stroke-width:4.00085;stroke-miterlimit:4;stroke-dasharray:none;stroke-opacity:1"
             cx="228.57143"
             cy="158.07646"
             r="65.714287" />
          <text
             id="text1892"
             y="694.42487"
             x="-504.60742"
             style="font-style:normal;font-weight:normal;line-height:0%;font-family:'Bitstream Vera Sans';fill:#000000;fill-opacity:1;stroke:none"
             xml:space="preserve"><tspan
               y="694.42487"
               x="-504.60742"
               sodipodi:role="line"
               id="tspan1890"
               style="font-size:24px;line-height:1.25">HEAD~2</tspan></text>
        </g>
      </g>
      <path
         sodipodi:nodetypes="cc"
         id="path1898"
         d="M -451.29856,411.1331 V 387.26572"
         style="fill:none;stroke:#000000;stroke-width:3;stroke-linecap:butt;stroke-linejoin:miter;stroke-miterlimit:4;stroke-dasharray:none;stroke-opacity:1;marker-end:url(#marker5271)" />
      <path
         sodipodi:nodetypes="cc"
         id="path1900"
         d="M -451.29856,299.69626 V 275.82889"
         style="fill:none;stroke:#000000;stroke-width:3;stroke-linecap:butt;stroke-linejoin:miter;stroke-miterlimit:4;stroke-dasharray:none;stroke-opacity:1;marker-end:url(#marker5271)" />
      <path
         sodipodi:nodetypes="cc"
         id="path1902"
         d="M -451.29856,523.96609 V 500.0987"
         style="fill:none;stroke:#000000;stroke-width:3;stroke-linecap:butt;stroke-linejoin:miter;stroke-miterlimit:4;stroke-dasharray:none;stroke-opacity:1;marker-end:url(#marker5271)" />
    </g>
    <path
       style="fill:none;stroke:#000000;stroke-width:3;stroke-linecap:butt;stroke-linejoin:miter;stroke-miterlimit:4;stroke-dasharray:none;stroke-dashoffset:0;stroke-opacity:1;marker-end:none"
       d="M 917.65963,671.3639 1149.7136,491.86098"
       id="path1906"
       sodipodi:nodetypes="cc" />
    <path
       style="fill:#000000;stroke:#000000;stroke-width:3;stroke-linecap:butt;stroke-linejoin:miter;stroke-miterlimit:4;stroke-dasharray:none;stroke-dashoffset:0;stroke-opacity:1;marker-end:none"
       d="M 694.99677,474.95178 H 1152.373"
       id="path1912"
       sodipodi:nodetypes="cc" />
    <path
       sodipodi:type="star"
       style="fill:url(#radialGradient1954);fill-opacity:1;stroke:#ff0000;stroke-width:1.37466;stroke-miterlimit:4;stroke-dasharray:none;stroke-opacity:1"
       id="path1918"
       sodipodi:sides="3"
       sodipodi:cx="370.71429"
       sodipodi:cy="227.36218"
       sodipodi:r1="52.186871"
       sodipodi:r2="26.093435"
       sodipodi:arg1="0.52359878"
       sodipodi:arg2="1.5707963"
       inkscape:flatsided="false"
       inkscape:rounded="0"
       inkscape:randomized="0"
       transform="matrix(2.1794371,0,0,2.1852983,59.6382,204.87439)"
       d="m 415.90945,253.45562 -45.19515,0 -45.19516,0 22.59758,-39.14015 22.59757,-39.14016 22.59758,39.14015 z" />
    <text
       xml:space="preserve"
       style="font-style:normal;font-weight:normal;line-height:0%;font-family:'Bitstream Vera Sans';fill:#000000;fill-opacity:1;stroke:none"
       x="813.56818"
       y="714.66602"
       id="text1922"><tspan
         sodipodi:role="line"
         id="tspan1920"
         x="813.56818"
         y="714.66602"
         style="font-size:40px;line-height:1.25">Index</tspan></text>
    <path
       style="fill:none;stroke:#ff0000;stroke-width:3;stroke-linecap:butt;stroke-linejoin:miter;stroke-miterlimit:4;stroke-dasharray:none;stroke-dashoffset:0;stroke-opacity:1;marker-end:none"
       d="M 646.9827,553.2737 822.52966,666.893"
       id="path1924"
       sodipodi:nodetypes="cc" />
    <text
       xml:space="preserve"
       style="font-style:normal;font-weight:normal;line-height:0%;font-family:'Bitstream Vera Sans';fill:#000000;fill-opacity:1;stroke:none"
       x="895.15027"
       y="43.243065"
       id="text1928"
       transform="rotate(36.572742)"><tspan
         sodipodi:role="line"
         x="895.15027"
         y="43.243065"
         id="tspan1926"
         style="font-size:28.1909px;line-height:1.25">git add</tspan></text>
    <circle
       style="fill:url(#radialGradient1952);fill-opacity:1;stroke:#ff0000;stroke-width:2.61429;stroke-miterlimit:4;stroke-dasharray:none;stroke-opacity:1"
       id="circle1930"
       cx="608.85535"
       cy="475.63666"
       r="85.835709" />
    <text
       xml:space="preserve"
       style="font-style:normal;font-weight:normal;line-height:0%;font-family:'Bitstream Vera Sans';text-align:center;text-anchor:middle;fill:#000000;fill-opacity:1;stroke:none"
       x="609.83197"
       y="476.40594"
       id="text1936"><tspan
         sodipodi:role="line"
         id="tspan1932"
         x="609.83197"
         y="476.40594"
         style="font-size:40px;line-height:1.25">working</tspan><tspan
         sodipodi:role="line"
         x="609.83197"
         y="526.40594"
         id="tspan1934"
         style="font-size:40px;line-height:1.25">tree</tspan></text>
    <text
       xml:space="preserve"
       style="font-style:italic;font-weight:bold;font-size:11.3164px;line-height:0%;font-family:'Bitstream Vera Sans';-inkscape-font-specification:'Andale Mono Bold';text-align:center;text-anchor:middle;fill:#000000;fill-opacity:1;stroke:none;stroke-width:1"
       x="653.68079"
       y="647.74792"
       id="text1940"><tspan
         sodipodi:role="line"
         x="653.68079"
         y="647.74792"
         id="tspan1938"
         style="font-style:oblique;font-variant:normal;font-weight:bold;font-stretch:normal;font-size:26.5849px;line-height:1.25;font-family:'Bitstream Vera Sans';-inkscape-font-specification:'Bitstream Vera Sans Bold Oblique';stroke-width:1">Add changes</tspan><tspan
         sodipodi:role="line"
         x="653.68079"
         y="680.97906"
         style="font-style:oblique;font-variant:normal;font-weight:bold;font-stretch:normal;font-size:26.5849px;line-height:1.25;font-family:'Bitstream Vera Sans';-inkscape-font-specification:'Bitstream Vera Sans Bold Oblique';stroke-width:1"
         id="tspan1964">to the Index</tspan><tspan
         sodipodi:role="line"
         x="653.68079"
         y="714.21021"
         style="font-style:oblique;font-variant:normal;font-weight:bold;font-stretch:normal;font-size:26.5849px;line-height:1.25;font-family:'Bitstream Vera Sans';-inkscape-font-specification:'Bitstream Vera Sans Bold Oblique';stroke-width:1"
         id="tspan1966">(prepare commit)</tspan></text>
  </g>
</svg>
