<?xml version="1.0" encoding="UTF-8" standalone="no"?>
<!-- Created with Inkscape (http://www.inkscape.org/) -->

<svg
   width="416.40732mm"
   height="196.12555mm"
   viewBox="0 0 416.40733 196.12554"
   version="1.1"
   id="svg29358"
   inkscape:version="1.2.1 (9c6d41e410, 2022-07-14)"
   sodipodi:docname="merge.svg"
   xmlns:inkscape="http://www.inkscape.org/namespaces/inkscape"
   xmlns:sodipodi="http://sodipodi.sourceforge.net/DTD/sodipodi-0.dtd"
   xmlns="http://www.w3.org/2000/svg"
   xmlns:svg="http://www.w3.org/2000/svg">
  <sodipodi:namedview
     id="namedview29360"
     pagecolor="#ffffff"
     bordercolor="#666666"
     borderopacity="1.0"
     inkscape:showpageshadow="2"
     inkscape:pageopacity="0.0"
     inkscape:pagecheckerboard="0"
     inkscape:deskcolor="#d1d1d1"
     inkscape:document-units="mm"
     showgrid="false"
     inkscape:zoom="0.79467453"
     inkscape:cx="758.80122"
     inkscape:cy="428.4773"
     inkscape:window-width="2556"
     inkscape:window-height="1056"
     inkscape:window-x="0"
     inkscape:window-y="20"
     inkscape:window-maximized="1"
     inkscape:current-layer="layer3"
     showguides="true" />
  <defs
     id="defs29355">
    <linearGradient
       id="linearGradient8208">
      <stop
         style="stop-color:#fb9477;stop-opacity:1;"
         offset="0"
         id="stop8204" />
      <stop
         style="stop-color:#fbdd77;stop-opacity:1;"
         offset="1"
         id="stop8206" />
    </linearGradient>
    <linearGradient
       id="linearGradient14123">
      <stop
         style="stop-color:#ffffff;stop-opacity:1;"
         offset="0"
         id="stop14119" />
      <stop
         style="stop-color:#fbdd77;stop-opacity:1;"
         offset="1"
         id="stop14121" />
    </linearGradient>
    <linearGradient
       id="linearGradient12435">
      <stop
         style="stop-color:#ffffff;stop-opacity:1;"
         offset="0"
         id="stop12431" />
      <stop
         style="stop-color:#fbdd77;stop-opacity:1;"
         offset="1"
         id="stop12433" />
    </linearGradient>
    <linearGradient
       id="linearGradient8525">
      <stop
         style="stop-color:#ffffff;stop-opacity:1;"
         offset="0"
         id="stop8521" />
      <stop
         style="stop-color:#fbdd77;stop-opacity:1;"
         offset="1"
         id="stop8523" />
    </linearGradient>
    <linearGradient
       id="linearGradient5865">
      <stop
         id="stop5861"
         offset="0"
         style="stop-color:#ffffff;stop-opacity:1;" />
      <stop
         id="stop5863"
         offset="1"
         style="stop-color:#fbdd77;stop-opacity:1;" />
    </linearGradient>
    <marker
       style="overflow:visible"
       id="Arrow1"
       refX="0"
       refY="0"
       orient="auto-start-reverse"
       inkscape:stockid="Arrow1"
       markerWidth="2.8499999"
       markerHeight="4.7074251"
       viewBox="0 0 4.0606602 6.7071068"
       inkscape:isstock="true"
       inkscape:collect="always"
       preserveAspectRatio="xMidYMid">
      <path
         style="fill:none;stroke:context-stroke;stroke-width:1;stroke-linecap:butt"
         d="M 3,-3 0,0 3,3"
         id="path5057"
         transform="rotate(180,0.125,0)"
         sodipodi:nodetypes="ccc" />
    </marker>
    <linearGradient
       id="linearGradient3633-7-3-4-5">
      <stop
         id="stop3635-1-8-0-4"
         offset="0"
         style="stop-color:#ffffff;stop-opacity:1;" />
      <stop
         id="stop3637-1-8-55-6"
         offset="1"
         style="stop-color:#77fb92;stop-opacity:1;" />
    </linearGradient>
    <linearGradient
       id="linearGradient3649-1-2-3">
      <stop
         style="stop-color:#ffffff;stop-opacity:1;"
         offset="0"
         id="stop3651-1-8-7" />
      <stop
         style="stop-color:#fb9477;stop-opacity:1;"
         offset="1"
         id="stop3653-8-5-2" />
    </linearGradient>
    <linearGradient
       id="linearGradient6610-7-1-7">
      <stop
         id="stop6612-1-8-5"
         offset="0"
         style="stop-color:#ffffff;stop-opacity:1;" />
      <stop
         id="stop6614-4-8-5"
         offset="1"
         style="stop-color:#fbdd77;stop-opacity:1;" />
    </linearGradient>
    <marker
       inkscape:stockid="Arrow2Mend"
       orient="auto"
       refY="0"
       refX="0"
       id="marker5271"
       style="overflow:visible"
       viewBox="0 0 6.5555267 4.8212658"
       markerWidth="6.5555267"
       markerHeight="4.8212657"
       preserveAspectRatio="xMidYMid">
      <path
         id="path5273"
         style="font-size:12px;fill-rule:evenodd;stroke-width:0.625;stroke-linejoin:round"
         d="M 8.7185878,4.0337352 -2.2072895,0.01601326 8.7185884,-4.0017078 c -1.7454984,2.3720609 -1.7354408,5.6174519 -6e-7,8.035443 z"
         transform="scale(-0.6)" />
    </marker>
    <marker
       inkscape:stockid="Arrow2Mend"
       orient="auto"
       refY="0"
       refX="0"
       id="marker29315"
       style="overflow:visible"
       viewBox="0 0 6.5555267 4.8212658"
       markerWidth="6.5555267"
       markerHeight="4.8212657"
       preserveAspectRatio="xMidYMid">
      <path
         id="path29313"
         style="font-size:12px;fill-rule:evenodd;stroke-width:0.625;stroke-linejoin:round"
         d="M 8.7185878,4.0337352 -2.2072895,0.01601326 8.7185884,-4.0017078 c -1.7454984,2.3720609 -1.7354408,5.6174519 -6e-7,8.035443 z"
         transform="scale(-0.6)" />
    </marker>
    <marker
       inkscape:stockid="Arrow2Mend"
       orient="auto"
       refY="0"
       refX="0"
       id="marker29319"
       style="overflow:visible"
       viewBox="0 0 6.5555267 4.8212658"
       markerWidth="6.5555267"
       markerHeight="4.8212657"
       preserveAspectRatio="xMidYMid">
      <path
         id="path29317"
         style="font-size:12px;fill-rule:evenodd;stroke-width:0.625;stroke-linejoin:round"
         d="M 8.7185878,4.0337352 -2.2072895,0.01601326 8.7185884,-4.0017078 c -1.7454984,2.3720609 -1.7354408,5.6174519 -6e-7,8.035443 z"
         transform="scale(-0.6)" />
    </marker>
    <marker
       inkscape:stockid="Arrow2Mend"
       orient="auto"
       refY="0"
       refX="0"
       id="marker29323"
       style="overflow:visible"
       viewBox="0 0 6.5555267 4.8212658"
       markerWidth="6.5555267"
       markerHeight="4.8212657"
       preserveAspectRatio="xMidYMid">
      <path
         id="path29321"
         style="font-size:12px;fill-rule:evenodd;stroke-width:0.625;stroke-linejoin:round"
         d="M 8.7185878,4.0337352 -2.2072895,0.01601326 8.7185884,-4.0017078 c -1.7454984,2.3720609 -1.7354408,5.6174519 -6e-7,8.035443 z"
         transform="scale(-0.6)" />
    </marker>
    <marker
       style="overflow:visible"
       id="Arrow1-3"
       refX="0"
       refY="0"
       orient="auto-start-reverse"
       inkscape:stockid="Arrow1"
       markerWidth="3.4551692"
       markerHeight="5.7069998"
       viewBox="0 0 4.0606602 6.7071068"
       inkscape:isstock="true"
       inkscape:collect="always"
       preserveAspectRatio="xMidYMid">
      <path
         style="fill:none;stroke:context-stroke;stroke-width:1;stroke-linecap:butt"
         d="M 3,-3 0,0 3,3"
         id="path5057-6"
         transform="rotate(180,0.125,0)"
         sodipodi:nodetypes="ccc" />
    </marker>
  </defs>
  <g
     inkscape:groupmode="layer"
     id="g11260"
     inkscape:label="Layer 1"
     style="display:inline"
     transform="translate(-0.4635492,26.328298)"
     sodipodi:insensitive="true">
    <circle
       style="display:inline;fill:#fbdd77;fill-opacity:1;stroke:#000000;stroke-width:0.691696;stroke-miterlimit:4;stroke-dasharray:none;stroke-opacity:1"
       id="circle11178"
       cx="26.96401"
       cy="149.80777"
       r="11.361159" />
    <text
       xml:space="preserve"
       style="font-style:normal;font-weight:normal;font-size:4.93889px;line-height:0%;font-family:'Bitstream Vera Sans';text-align:center;text-anchor:middle;display:inline;fill:#000000;fill-opacity:1;stroke:#000000;stroke-width:0.264583;stroke-opacity:1"
       x="26.884417"
       y="147.50386"
       id="text11184"><tspan
         sodipodi:role="line"
         id="tspan11180"
         x="26.884417"
         y="147.50386"
         style="font-size:4.93889px;line-height:1.25;stroke:#000000;stroke-width:0.264583;stroke-opacity:1">First</tspan><tspan
         sodipodi:role="line"
         x="26.884417"
         y="153.67747"
         id="tspan11182"
         style="font-size:4.93889px;line-height:1.25;stroke:#000000;stroke-width:0.264583;stroke-opacity:1">Commit</tspan></text>
    <rect
       style="display:inline;fill:none;fill-opacity:1;stroke:#000000;stroke-width:0.847548;stroke-miterlimit:4;stroke-dasharray:none;stroke-opacity:1"
       id="rect11186"
       width="98.059799"
       height="195.278"
       x="0.8873232"
       y="-25.904524"
       rx="2.6458335"
       ry="2.6458333" />
    <text
       xml:space="preserve"
       style="font-style:normal;font-weight:normal;font-size:10.5833px;line-height:0%;font-family:'Bitstream Vera Sans';text-align:center;text-anchor:middle;display:inline;fill:#000000;fill-opacity:1;stroke:#000000;stroke-width:0.264583;stroke-opacity:1"
       x="31.894011"
       y="-13.080845"
       id="text11190"><tspan
         sodipodi:role="line"
         x="31.894011"
         y="-13.080845"
         id="tspan11188"
         style="font-size:10.5833px;line-height:1.25;stroke:#000000;stroke-width:0.264583;stroke-opacity:1">Repository</tspan></text>
    <circle
       style="display:inline;fill:#fbdd77;fill-opacity:1;stroke:#000000;stroke-width:0.691696;stroke-miterlimit:4;stroke-dasharray:none;stroke-opacity:1"
       id="circle11192"
       cx="26.964056"
       cy="119.64527"
       r="11.361159" />
    <text
       xml:space="preserve"
       style="font-style:normal;font-weight:normal;font-size:4.93889px;line-height:0%;font-family:'Bitstream Vera Sans';text-align:center;text-anchor:middle;display:inline;fill:#000000;fill-opacity:1;stroke:#000000;stroke-width:0.264583;stroke-opacity:1"
       x="26.884462"
       y="117.34135"
       id="text11198"><tspan
         sodipodi:role="line"
         id="tspan11194"
         x="26.884462"
         y="117.34135"
         style="font-size:4.93889px;line-height:1.25;stroke:#000000;stroke-width:0.264583;stroke-opacity:1">Second</tspan><tspan
         sodipodi:role="line"
         x="26.884462"
         y="123.51496"
         id="tspan11196"
         style="font-size:4.93889px;line-height:1.25;stroke:#000000;stroke-width:0.264583;stroke-opacity:1">Commit</tspan></text>
    <path
       style="display:inline;fill:none;stroke:#000000;stroke-width:0.79375;stroke-linecap:butt;stroke-linejoin:miter;stroke-miterlimit:4;stroke-dasharray:none;stroke-opacity:1;marker-end:url(#marker5271)"
       d="m 26.971662,138.11437 v -6.31491"
       id="path11200"
       sodipodi:nodetypes="cc" />
    <circle
       style="display:inline;fill:#fbdd77;fill-opacity:1;stroke:#000000;stroke-width:0.691696;stroke-miterlimit:4;stroke-dasharray:none;stroke-opacity:1"
       id="circle11202"
       cx="26.964056"
       cy="90.011932"
       r="11.361159" />
    <text
       xml:space="preserve"
       style="font-style:normal;font-weight:normal;font-size:4.93889px;line-height:0%;font-family:'Bitstream Vera Sans';text-align:center;text-anchor:middle;display:inline;fill:#000000;fill-opacity:1;stroke:#000000;stroke-width:0.264583;stroke-opacity:1"
       x="26.884462"
       y="87.708023"
       id="text11208"><tspan
         sodipodi:role="line"
         id="tspan11204"
         x="26.884462"
         y="87.708023"
         style="font-size:4.93889px;line-height:1.25;stroke:#000000;stroke-width:0.264583;stroke-opacity:1">Fourth</tspan><tspan
         sodipodi:role="line"
         x="26.884462"
         y="93.881638"
         id="tspan11206"
         style="font-size:4.93889px;line-height:1.25;stroke:#000000;stroke-width:0.264583;stroke-opacity:1">Commit</tspan></text>
    <text
       xml:space="preserve"
       style="font-style:normal;font-variant:normal;font-weight:normal;font-stretch:normal;font-size:7.05556px;line-height:1.25;font-family:Inconsolata;-inkscape-font-specification:Inconsolata;letter-spacing:0px;word-spacing:0px;display:inline;stroke-width:0.264583"
       x="26.9923"
       y="58.404709"
       id="text11214"><tspan
         sodipodi:role="line"
         id="tspan11210"
         style="font-style:normal;font-variant:normal;font-weight:normal;font-stretch:normal;font-size:7.05556px;font-family:Inconsolata;-inkscape-font-specification:Inconsolata;text-align:center;text-anchor:middle;stroke-width:0.264583"
         x="26.9923"
         y="58.404709">Main</tspan><tspan
         sodipodi:role="line"
         style="font-style:normal;font-variant:normal;font-weight:normal;font-stretch:normal;font-size:7.05556px;font-family:Inconsolata;-inkscape-font-specification:Inconsolata;text-align:center;text-anchor:middle;stroke-width:0.264583"
         x="26.9923"
         y="67.224159"
         id="tspan11212">branch</tspan></text>
    <path
       style="display:inline;fill:none;stroke:#000000;stroke-width:0.79375;stroke-linecap:butt;stroke-linejoin:miter;stroke-miterlimit:4;stroke-dasharray:none;stroke-opacity:1;marker-end:url(#Arrow1)"
       d="m 26.964082,69.534401 v 7.373243"
       id="path11216"
       sodipodi:nodetypes="cc" />
    <path
       style="display:inline;fill:none;stroke:#000000;stroke-width:0.79375;stroke-linecap:butt;stroke-linejoin:miter;stroke-miterlimit:4;stroke-dasharray:none;stroke-opacity:1;marker-end:url(#marker5271)"
       d="m 26.971662,108.48102 v -6.31491"
       id="path11218"
       sodipodi:nodetypes="cc" />
    <circle
       style="display:inline;fill:#fbdd77;fill-opacity:1;stroke:#000000;stroke-width:0.691696;stroke-miterlimit:4;stroke-dasharray:none;stroke-opacity:1"
       id="circle11220"
       cx="61.889042"
       cy="90.011948"
       r="11.361159" />
    <text
       xml:space="preserve"
       style="font-style:normal;font-weight:normal;font-size:4.93889px;line-height:0%;font-family:'Bitstream Vera Sans';text-align:center;text-anchor:middle;display:inline;fill:#000000;fill-opacity:1;stroke:#000000;stroke-width:0.264583;stroke-opacity:1"
       x="61.809452"
       y="87.708023"
       id="text11226"><tspan
         sodipodi:role="line"
         id="tspan11222"
         x="61.809452"
         y="87.708023"
         style="font-size:4.93889px;line-height:1.25;stroke:#000000;stroke-width:0.264583;stroke-opacity:1">Third</tspan><tspan
         sodipodi:role="line"
         x="61.809452"
         y="93.881638"
         id="tspan11224"
         style="font-size:4.93889px;line-height:1.25;stroke:#000000;stroke-width:0.264583;stroke-opacity:1">Commit</tspan></text>
    <path
       style="display:inline;fill:none;stroke:#000000;stroke-width:0.79375;stroke-linecap:butt;stroke-linejoin:miter;stroke-miterlimit:4;stroke-dasharray:none;stroke-opacity:1;marker-end:url(#marker5271)"
       d="m 38.301936,119.59351 23.594718,-10.5658 v -6.86162"
       id="path11228"
       sodipodi:nodetypes="ccc" />
    <circle
       style="fill:#fbdd77;fill-opacity:1;stroke:#000000;stroke-width:0.691696;stroke-miterlimit:4;stroke-dasharray:none;stroke-opacity:1"
       id="circle11230"
       cx="61.88908"
       cy="60.378593"
       r="11.361159" />
    <text
       xml:space="preserve"
       style="font-style:normal;font-weight:normal;font-size:4.93889px;line-height:0%;font-family:'Bitstream Vera Sans';text-align:center;text-anchor:middle;fill:#000000;fill-opacity:1;stroke:#000000;stroke-width:0.264583;stroke-opacity:1"
       x="61.809498"
       y="58.074684"
       id="text11236"><tspan
         sodipodi:role="line"
         id="tspan11232"
         x="61.809498"
         y="58.074684"
         style="font-size:4.93889px;line-height:1.25;stroke:#000000;stroke-width:0.264583;stroke-opacity:1">Fifth</tspan><tspan
         sodipodi:role="line"
         x="61.809498"
         y="64.248299"
         id="tspan11234"
         style="font-size:4.93889px;line-height:1.25;stroke:#000000;stroke-width:0.264583;stroke-opacity:1">Commit</tspan></text>
    <text
       xml:space="preserve"
       style="font-style:normal;font-variant:normal;font-weight:normal;font-stretch:normal;font-size:7.05556px;line-height:1.25;font-family:Inconsolata;-inkscape-font-specification:Inconsolata;letter-spacing:0px;word-spacing:0px;display:inline;stroke-width:0.264583"
       x="82.302231"
       y="62.844223"
       id="text11242"><tspan
         sodipodi:role="line"
         id="tspan11240"
         style="font-style:normal;font-variant:normal;font-weight:normal;font-stretch:normal;font-size:7.05556px;font-family:Inconsolata;-inkscape-font-specification:Inconsolata;stroke-width:0.264583"
         x="82.302231"
         y="62.844223">HEAD</tspan></text>
    <path
       style="display:inline;fill:none;stroke:#000000;stroke-width:0.79375;stroke-linecap:butt;stroke-linejoin:miter;stroke-miterlimit:4;stroke-dasharray:none;stroke-opacity:1;marker-end:url(#Arrow1)"
       d="M 81.751262,61.040802 H 74.378015"
       id="path11244"
       sodipodi:nodetypes="cc" />
    <text
       xml:space="preserve"
       style="font-style:normal;font-variant:normal;font-weight:normal;font-stretch:normal;font-size:7.05556px;line-height:1.25;font-family:Inconsolata;-inkscape-font-specification:Inconsolata;letter-spacing:0px;word-spacing:0px;display:inline;stroke:#000000;stroke-width:0.264583;stroke-opacity:1"
       x="61.917286"
       y="28.771366"
       id="text11250"><tspan
         sodipodi:role="line"
         id="tspan11246"
         style="font-style:normal;font-variant:normal;font-weight:normal;font-stretch:normal;font-size:7.05556px;font-family:Inconsolata;-inkscape-font-specification:Inconsolata;text-align:center;text-anchor:middle;stroke:#000000;stroke-width:0.264583;stroke-opacity:1"
         x="61.917286"
         y="28.771366">Alt</tspan><tspan
         sodipodi:role="line"
         style="font-style:normal;font-variant:normal;font-weight:normal;font-stretch:normal;font-size:7.05556px;font-family:Inconsolata;-inkscape-font-specification:Inconsolata;text-align:center;text-anchor:middle;stroke:#000000;stroke-width:0.264583;stroke-opacity:1"
         x="61.917286"
         y="37.590816"
         id="tspan11248">branch</tspan></text>
    <path
       style="display:inline;fill:none;stroke:#000000;stroke-width:0.79375;stroke-linecap:butt;stroke-linejoin:miter;stroke-miterlimit:4;stroke-dasharray:none;stroke-opacity:1;marker-end:url(#Arrow1)"
       d="m 61.889074,39.901064 v 7.373243"
       id="path11252"
       sodipodi:nodetypes="cc" />
    <path
       style="display:inline;fill:none;stroke:#000000;stroke-width:0.79375;stroke-linecap:butt;stroke-linejoin:miter;stroke-miterlimit:4;stroke-dasharray:none;stroke-opacity:1;marker-end:url(#marker5271)"
       d="M 61.896654,78.847674 V 72.532767"
       id="path11254"
       sodipodi:nodetypes="cc" />
  </g>
  <g
     inkscape:groupmode="layer"
     id="layer1"
     inkscape:label="Layer 2"
     style="display:inline"
     sodipodi:insensitive="true">
    <circle
       style="display:inline;fill:#fbdd77;fill-opacity:1;stroke:#000000;stroke-width:0.691696;stroke-miterlimit:4;stroke-dasharray:none;stroke-opacity:1"
       id="circle322"
       cx="132.79733"
       cy="149.80777"
       r="11.361159"
       transform="translate(-0.46354921,26.328298)" />
    <text
       xml:space="preserve"
       style="font-style:normal;font-weight:normal;font-size:4.93889px;line-height:0%;font-family:'Bitstream Vera Sans';text-align:center;text-anchor:middle;display:inline;fill:#000000;fill-opacity:1;stroke:#000000;stroke-width:0.264583;stroke-opacity:1"
       x="132.71774"
       y="147.50386"
       id="text328"
       transform="translate(-0.46354921,26.328298)"><tspan
         sodipodi:role="line"
         id="tspan324"
         x="132.71774"
         y="147.50386"
         style="font-size:4.93889px;line-height:1.25;stroke:#000000;stroke-width:0.264583;stroke-opacity:1">First</tspan><tspan
         sodipodi:role="line"
         x="132.71774"
         y="153.67747"
         id="tspan326"
         style="font-size:4.93889px;line-height:1.25;stroke:#000000;stroke-width:0.264583;stroke-opacity:1">Commit</tspan></text>
    <rect
       style="display:inline;fill:none;fill-opacity:1;stroke:#000000;stroke-width:0.847548;stroke-miterlimit:4;stroke-dasharray:none;stroke-opacity:1"
       id="rect330"
       width="98.059799"
       height="195.278"
       x="106.72064"
       y="-25.904524"
       rx="2.6458335"
       ry="2.6458333"
       transform="translate(-0.46354921,26.328298)" />
    <text
       xml:space="preserve"
       style="font-style:normal;font-weight:normal;font-size:10.5833px;line-height:0%;font-family:'Bitstream Vera Sans';text-align:center;text-anchor:middle;display:inline;fill:#000000;fill-opacity:1;stroke:#000000;stroke-width:0.264583;stroke-opacity:1"
       x="137.72734"
       y="-13.080845"
       id="text334"
       transform="translate(-0.46354921,26.328298)"><tspan
         sodipodi:role="line"
         x="137.72734"
         y="-13.080845"
         id="tspan332"
         style="font-size:10.5833px;line-height:1.25;stroke:#000000;stroke-width:0.264583;stroke-opacity:1">Repository</tspan></text>
    <circle
       style="display:inline;fill:#fbdd77;fill-opacity:1;stroke:#000000;stroke-width:0.691696;stroke-miterlimit:4;stroke-dasharray:none;stroke-opacity:1"
       id="circle336"
       cx="132.79738"
       cy="119.64527"
       r="11.361159"
       transform="translate(-0.46354921,26.328298)" />
    <text
       xml:space="preserve"
       style="font-style:normal;font-weight:normal;font-size:4.93889px;line-height:0%;font-family:'Bitstream Vera Sans';text-align:center;text-anchor:middle;display:inline;fill:#000000;fill-opacity:1;stroke:#000000;stroke-width:0.264583;stroke-opacity:1"
       x="132.71779"
       y="117.34135"
       id="text342"
       transform="translate(-0.46354921,26.328298)"><tspan
         sodipodi:role="line"
         id="tspan338"
         x="132.71779"
         y="117.34135"
         style="font-size:4.93889px;line-height:1.25;stroke:#000000;stroke-width:0.264583;stroke-opacity:1">Second</tspan><tspan
         sodipodi:role="line"
         x="132.71779"
         y="123.51496"
         id="tspan340"
         style="font-size:4.93889px;line-height:1.25;stroke:#000000;stroke-width:0.264583;stroke-opacity:1">Commit</tspan></text>
    <path
       style="display:inline;fill:none;stroke:#000000;stroke-width:0.79375;stroke-linecap:butt;stroke-linejoin:miter;stroke-miterlimit:4;stroke-dasharray:none;stroke-opacity:1;marker-end:url(#marker5271)"
       d="m 132.80502,138.11437 v -6.31491"
       id="path344"
       sodipodi:nodetypes="cc"
       transform="translate(-0.46354921,26.328298)" />
    <circle
       style="display:inline;fill:#fbdd77;fill-opacity:1;stroke:#000000;stroke-width:0.691696;stroke-miterlimit:4;stroke-dasharray:none;stroke-opacity:1"
       id="circle346"
       cx="132.79738"
       cy="90.011932"
       r="11.361159"
       transform="translate(-0.46354921,26.328298)" />
    <text
       xml:space="preserve"
       style="font-style:normal;font-weight:normal;font-size:4.93889px;line-height:0%;font-family:'Bitstream Vera Sans';text-align:center;text-anchor:middle;display:inline;fill:#000000;fill-opacity:1;stroke:#000000;stroke-width:0.264583;stroke-opacity:1"
       x="132.71779"
       y="87.708023"
       id="text352"
       transform="translate(-0.46354921,26.328298)"><tspan
         sodipodi:role="line"
         id="tspan348"
         x="132.71779"
         y="87.708023"
         style="font-size:4.93889px;line-height:1.25;stroke:#000000;stroke-width:0.264583;stroke-opacity:1">Fourth</tspan><tspan
         sodipodi:role="line"
         x="132.71779"
         y="93.881638"
         id="tspan350"
         style="font-size:4.93889px;line-height:1.25;stroke:#000000;stroke-width:0.264583;stroke-opacity:1">Commit</tspan></text>
    <text
       xml:space="preserve"
       style="font-style:normal;font-variant:normal;font-weight:normal;font-stretch:normal;font-size:7.05556px;line-height:1.25;font-family:Inconsolata;-inkscape-font-specification:Inconsolata;letter-spacing:0px;word-spacing:0px;display:inline;stroke:#000000;stroke-width:0.264583;stroke-opacity:1"
       x="132.82561"
       y="58.404709"
       id="text358"
       transform="translate(-0.46354921,26.328298)"><tspan
         sodipodi:role="line"
         id="tspan354"
         style="font-style:normal;font-variant:normal;font-weight:normal;font-stretch:normal;font-size:7.05556px;font-family:Inconsolata;-inkscape-font-specification:Inconsolata;text-align:center;text-anchor:middle;stroke:#000000;stroke-width:0.264583;stroke-opacity:1"
         x="132.82561"
         y="58.404709">Main</tspan><tspan
         sodipodi:role="line"
         style="font-style:normal;font-variant:normal;font-weight:normal;font-stretch:normal;font-size:7.05556px;font-family:Inconsolata;-inkscape-font-specification:Inconsolata;text-align:center;text-anchor:middle;stroke:#000000;stroke-width:0.264583;stroke-opacity:1"
         x="132.82561"
         y="67.224159"
         id="tspan356">branch</tspan></text>
    <path
       style="display:inline;fill:none;stroke:#000000;stroke-width:0.79375;stroke-linecap:butt;stroke-linejoin:miter;stroke-miterlimit:4;stroke-dasharray:none;stroke-opacity:1;marker-end:url(#Arrow1)"
       d="m 132.79744,69.534401 v 7.373243"
       id="path360"
       sodipodi:nodetypes="cc"
       transform="translate(-0.46354921,26.328298)" />
    <path
       style="display:inline;fill:none;stroke:#000000;stroke-width:0.79375;stroke-linecap:butt;stroke-linejoin:miter;stroke-miterlimit:4;stroke-dasharray:none;stroke-opacity:1;marker-end:url(#marker5271)"
       d="m 132.80502,108.48102 v -6.31491"
       id="path362"
       sodipodi:nodetypes="cc"
       transform="translate(-0.46354921,26.328298)" />
    <circle
       style="display:inline;fill:#fbdd77;fill-opacity:1;stroke:#000000;stroke-width:0.691696;stroke-miterlimit:4;stroke-dasharray:none;stroke-opacity:1"
       id="circle364"
       cx="167.7224"
       cy="90.011948"
       r="11.361159"
       transform="translate(-0.46354921,26.328298)" />
    <text
       xml:space="preserve"
       style="font-style:normal;font-weight:normal;font-size:4.93889px;line-height:0%;font-family:'Bitstream Vera Sans';text-align:center;text-anchor:middle;display:inline;fill:#000000;fill-opacity:1;stroke:#000000;stroke-width:0.264583;stroke-opacity:1"
       x="167.64281"
       y="87.708023"
       id="text370"
       transform="translate(-0.46354921,26.328298)"><tspan
         sodipodi:role="line"
         id="tspan366"
         x="167.64281"
         y="87.708023"
         style="font-size:4.93889px;line-height:1.25;stroke:#000000;stroke-width:0.264583;stroke-opacity:1">Third</tspan><tspan
         sodipodi:role="line"
         x="167.64281"
         y="93.881638"
         id="tspan368"
         style="font-size:4.93889px;line-height:1.25;stroke:#000000;stroke-width:0.264583;stroke-opacity:1">Commit</tspan></text>
    <path
       style="display:inline;fill:none;stroke:#000000;stroke-width:0.79375;stroke-linecap:butt;stroke-linejoin:miter;stroke-miterlimit:4;stroke-dasharray:none;stroke-opacity:1;marker-end:url(#marker5271)"
       d="m 144.1353,119.59351 23.59473,-10.5658 v -6.86162"
       id="path372"
       sodipodi:nodetypes="ccc"
       transform="translate(-0.46354921,26.328298)" />
    <circle
       style="display:inline;fill:#fbdd77;fill-opacity:1;stroke:#000000;stroke-width:0.691696;stroke-miterlimit:4;stroke-dasharray:none;stroke-opacity:1"
       id="circle374"
       cx="167.72243"
       cy="60.378593"
       r="11.361159"
       transform="translate(-0.46354921,26.328298)" />
    <text
       xml:space="preserve"
       style="font-style:normal;font-weight:normal;font-size:4.93889px;line-height:0%;font-family:'Bitstream Vera Sans';text-align:center;text-anchor:middle;display:inline;fill:#000000;fill-opacity:1;stroke:#000000;stroke-width:0.264583;stroke-opacity:1"
       x="167.64284"
       y="58.074684"
       id="text380"
       transform="translate(-0.46354921,26.328298)"><tspan
         sodipodi:role="line"
         id="tspan376"
         x="167.64284"
         y="58.074684"
         style="font-size:4.93889px;line-height:1.25;stroke:#000000;stroke-width:0.264583;stroke-opacity:1">Fifth</tspan><tspan
         sodipodi:role="line"
         x="167.64284"
         y="64.248299"
         id="tspan378"
         style="font-size:4.93889px;line-height:1.25;stroke:#000000;stroke-width:0.264583;stroke-opacity:1">Commit</tspan></text>
    <text
       xml:space="preserve"
       style="font-style:normal;font-variant:normal;font-weight:normal;font-stretch:normal;font-size:7.05556px;line-height:1.25;font-family:Inconsolata;-inkscape-font-specification:Inconsolata;letter-spacing:0px;word-spacing:0px;display:inline;stroke:none;stroke-width:0.264583;stroke-opacity:1"
       x="167.75064"
       y="28.771366"
       id="text392"
       transform="translate(-0.46354921,26.328298)"><tspan
         sodipodi:role="line"
         id="tspan388"
         style="font-style:normal;font-variant:normal;font-weight:normal;font-stretch:normal;font-size:7.05556px;font-family:Inconsolata;-inkscape-font-specification:Inconsolata;text-align:center;text-anchor:middle;stroke:none;stroke-width:0.264583;stroke-opacity:1"
         x="167.75064"
         y="28.771366">Alt</tspan><tspan
         sodipodi:role="line"
         style="font-style:normal;font-variant:normal;font-weight:normal;font-stretch:normal;font-size:7.05556px;font-family:Inconsolata;-inkscape-font-specification:Inconsolata;text-align:center;text-anchor:middle;stroke:none;stroke-width:0.264583;stroke-opacity:1"
         x="167.75064"
         y="37.590816"
         id="tspan390">branch</tspan></text>
    <path
       style="display:inline;fill:none;stroke:#000000;stroke-width:0.79375;stroke-linecap:butt;stroke-linejoin:miter;stroke-miterlimit:4;stroke-dasharray:none;stroke-opacity:1;marker-end:url(#Arrow1)"
       d="m 167.72245,39.901064 v 7.373243"
       id="path394"
       sodipodi:nodetypes="cc"
       transform="translate(-0.46354921,26.328298)" />
    <path
       style="display:inline;fill:none;stroke:#000000;stroke-width:0.79375;stroke-linecap:butt;stroke-linejoin:miter;stroke-miterlimit:4;stroke-dasharray:none;stroke-opacity:1;marker-end:url(#marker5271)"
       d="M 167.73003,78.847674 V 72.532767"
       id="path396"
       sodipodi:nodetypes="cc"
       transform="translate(-0.46354921,26.328298)" />
    <text
       xml:space="preserve"
       style="font-style:normal;font-variant:normal;font-weight:normal;font-stretch:normal;font-size:7.05556px;line-height:1.25;font-family:Inconsolata;-inkscape-font-specification:Inconsolata;letter-spacing:0px;word-spacing:0px;display:inline;stroke-width:0.264583"
       x="143.97171"
       y="82.442841"
       id="text11838"
       transform="translate(-0.46354921,26.328298)"><tspan
         sodipodi:role="line"
         id="tspan11836"
         style="font-style:normal;font-variant:normal;font-weight:normal;font-stretch:normal;font-size:7.05556px;font-family:Inconsolata;-inkscape-font-specification:Inconsolata;stroke-width:0.264583"
         x="143.97171"
         y="82.442841">HEAD</tspan></text>
    <path
       style="display:inline;fill:none;stroke:#000000;stroke-width:0.79375;stroke-linecap:butt;stroke-linejoin:miter;stroke-miterlimit:4;stroke-dasharray:none;stroke-opacity:1;marker-end:url(#Arrow1-3)"
       d="m 149.72062,84.786777 0.0175,5.29166 h -3.68662"
       id="path11840"
       sodipodi:nodetypes="ccc"
       transform="translate(-0.46354921,26.328298)" />
  </g>
  <g
     inkscape:groupmode="layer"
     id="layer2"
     inkscape:label="Layer 3"
     style="display:inline"
     sodipodi:insensitive="true">
    <circle
       style="display:inline;fill:#fbdd77;fill-opacity:1;stroke:#000000;stroke-width:0.691696;stroke-miterlimit:4;stroke-dasharray:none;stroke-opacity:1"
       id="circle1596"
       cx="238.63072"
       cy="149.80777"
       r="11.361159"
       transform="translate(-0.46354921,26.328298)" />
    <text
       xml:space="preserve"
       style="font-style:normal;font-weight:normal;font-size:4.93889px;line-height:0%;font-family:'Bitstream Vera Sans';text-align:center;text-anchor:middle;display:inline;fill:#000000;fill-opacity:1;stroke:#000000;stroke-width:0.264583;stroke-opacity:1"
       x="238.55113"
       y="147.50386"
       id="text1602"
       transform="translate(-0.46354921,26.328298)"><tspan
         sodipodi:role="line"
         id="tspan1598"
         x="238.55113"
         y="147.50386"
         style="font-size:4.93889px;line-height:1.25;stroke:#000000;stroke-width:0.264583;stroke-opacity:1">First</tspan><tspan
         sodipodi:role="line"
         x="238.55113"
         y="153.67747"
         id="tspan1600"
         style="font-size:4.93889px;line-height:1.25;stroke:#000000;stroke-width:0.264583;stroke-opacity:1">Commit</tspan></text>
    <rect
       style="display:inline;fill:none;fill-opacity:1;stroke:#000000;stroke-width:0.847548;stroke-miterlimit:4;stroke-dasharray:none;stroke-opacity:1"
       id="rect1604"
       width="98.059799"
       height="195.278"
       x="212.554"
       y="-25.904524"
       rx="2.6458335"
       ry="2.6458333"
       transform="translate(-0.46354921,26.328298)" />
    <text
       xml:space="preserve"
       style="font-style:normal;font-weight:normal;font-size:10.5833px;line-height:0%;font-family:'Bitstream Vera Sans';text-align:center;text-anchor:middle;display:inline;fill:#000000;fill-opacity:1;stroke:#000000;stroke-width:0.264583;stroke-opacity:1"
       x="243.56073"
       y="-13.080845"
       id="text1608"
       transform="translate(-0.46354921,26.328298)"><tspan
         sodipodi:role="line"
         x="243.56073"
         y="-13.080845"
         id="tspan1606"
         style="font-size:10.5833px;line-height:1.25;stroke:#000000;stroke-width:0.264583;stroke-opacity:1">Repository</tspan></text>
    <circle
       style="display:inline;fill:#fbdd77;fill-opacity:1;stroke:#0000fe;stroke-width:0.691696;stroke-miterlimit:4;stroke-dasharray:none;stroke-opacity:1"
       id="circle1610"
       cx="238.63077"
       cy="119.64527"
       r="11.361159"
       transform="translate(-0.46354921,26.328298)" />
    <text
       xml:space="preserve"
       style="font-style:normal;font-weight:normal;font-size:4.93889px;line-height:0%;font-family:'Bitstream Vera Sans';text-align:center;text-anchor:middle;display:inline;fill:#000000;fill-opacity:1;stroke:#000000;stroke-width:0.264583;stroke-opacity:1"
       x="238.55118"
       y="117.34135"
       id="text1616"
       transform="translate(-0.46354921,26.328298)"><tspan
         sodipodi:role="line"
         id="tspan1612"
         x="238.55118"
         y="117.34135"
         style="font-size:4.93889px;line-height:1.25;stroke:#000000;stroke-width:0.264583;stroke-opacity:1">Second</tspan><tspan
         sodipodi:role="line"
         x="238.55118"
         y="123.51496"
         id="tspan1614"
         style="font-size:4.93889px;line-height:1.25;stroke:#000000;stroke-width:0.264583;stroke-opacity:1">Commit</tspan></text>
    <path
       style="display:inline;fill:none;stroke:#000000;stroke-width:0.79375;stroke-linecap:butt;stroke-linejoin:miter;stroke-miterlimit:4;stroke-dasharray:none;stroke-opacity:1;marker-end:url(#marker5271)"
       d="m 238.63839,138.11437 v -6.31491"
       id="path1618"
       sodipodi:nodetypes="cc"
       transform="translate(-0.46354921,26.328298)" />
    <circle
       style="display:inline;fill:#fbdd77;fill-opacity:1;stroke:#ff0000;stroke-width:0.691696;stroke-miterlimit:4;stroke-dasharray:none;stroke-opacity:1"
       id="circle1620"
       cx="238.63077"
       cy="90.011932"
       r="11.361159"
       transform="translate(-0.46354921,26.328298)" />
    <text
       xml:space="preserve"
       style="font-style:normal;font-weight:normal;font-size:4.93889px;line-height:0%;font-family:'Bitstream Vera Sans';text-align:center;text-anchor:middle;display:inline;fill:#000000;fill-opacity:1;stroke:#000000;stroke-width:0.264583;stroke-opacity:1"
       x="238.55118"
       y="87.708023"
       id="text1626"
       transform="translate(-0.46354921,26.328298)"><tspan
         sodipodi:role="line"
         id="tspan1622"
         x="238.55118"
         y="87.708023"
         style="font-size:4.93889px;line-height:1.25;stroke:#000000;stroke-width:0.264583;stroke-opacity:1">Fourth</tspan><tspan
         sodipodi:role="line"
         x="238.55118"
         y="93.881638"
         id="tspan1624"
         style="font-size:4.93889px;line-height:1.25;stroke:#000000;stroke-width:0.264583;stroke-opacity:1">Commit</tspan></text>
    <text
       xml:space="preserve"
       style="font-style:normal;font-variant:normal;font-weight:normal;font-stretch:normal;font-size:7.05556px;line-height:1.25;font-family:Inconsolata;-inkscape-font-specification:Inconsolata;letter-spacing:0px;word-spacing:0px;display:inline;stroke:#000000;stroke-width:0.264583;stroke-opacity:1"
       x="238.659"
       y="58.404709"
       id="text1632"
       transform="translate(-0.46354921,26.328298)"><tspan
         sodipodi:role="line"
         id="tspan1628"
         style="font-style:normal;font-variant:normal;font-weight:normal;font-stretch:normal;font-size:7.05556px;font-family:Inconsolata;-inkscape-font-specification:Inconsolata;text-align:center;text-anchor:middle;stroke:#000000;stroke-width:0.264583;stroke-opacity:1"
         x="238.659"
         y="58.404709">Main</tspan><tspan
         sodipodi:role="line"
         style="font-style:normal;font-variant:normal;font-weight:normal;font-stretch:normal;font-size:7.05556px;font-family:Inconsolata;-inkscape-font-specification:Inconsolata;text-align:center;text-anchor:middle;stroke:#000000;stroke-width:0.264583;stroke-opacity:1"
         x="238.659"
         y="67.224159"
         id="tspan1630">branch</tspan></text>
    <path
       style="display:inline;fill:none;stroke:#000000;stroke-width:0.79375;stroke-linecap:butt;stroke-linejoin:miter;stroke-miterlimit:4;stroke-dasharray:none;stroke-opacity:1;marker-end:url(#Arrow1)"
       d="m 238.63081,69.534401 v 7.373243"
       id="path1634"
       sodipodi:nodetypes="cc"
       transform="translate(-0.46354921,26.328298)" />
    <path
       style="display:inline;fill:none;stroke:#000000;stroke-width:0.79375;stroke-linecap:butt;stroke-linejoin:miter;stroke-miterlimit:4;stroke-dasharray:none;stroke-opacity:1;marker-end:url(#marker5271)"
       d="m 238.63839,108.48102 v -6.31491"
       id="path1636"
       sodipodi:nodetypes="cc"
       transform="translate(-0.46354921,26.328298)" />
    <circle
       style="display:inline;fill:#fbdd77;fill-opacity:1;stroke:#000000;stroke-width:0.691696;stroke-miterlimit:4;stroke-dasharray:none;stroke-opacity:1"
       id="circle1638"
       cx="273.55576"
       cy="90.011948"
       r="11.361159"
       transform="translate(-0.46354921,26.328298)" />
    <text
       xml:space="preserve"
       style="font-style:normal;font-weight:normal;font-size:4.93889px;line-height:0%;font-family:'Bitstream Vera Sans';text-align:center;text-anchor:middle;display:inline;fill:#000000;fill-opacity:1;stroke:#000000;stroke-width:0.264583;stroke-opacity:1"
       x="273.47617"
       y="87.708023"
       id="text1644"
       transform="translate(-0.46354921,26.328298)"><tspan
         sodipodi:role="line"
         id="tspan1640"
         x="273.47617"
         y="87.708023"
         style="font-size:4.93889px;line-height:1.25;stroke:#000000;stroke-width:0.264583;stroke-opacity:1">Third</tspan><tspan
         sodipodi:role="line"
         x="273.47617"
         y="93.881638"
         id="tspan1642"
         style="font-size:4.93889px;line-height:1.25;stroke:#000000;stroke-width:0.264583;stroke-opacity:1">Commit</tspan></text>
    <path
       style="display:inline;fill:none;stroke:#000000;stroke-width:0.79375;stroke-linecap:butt;stroke-linejoin:miter;stroke-miterlimit:4;stroke-dasharray:none;stroke-opacity:1;marker-end:url(#marker5271)"
       d="m 249.96867,119.59351 23.59473,-10.5658 v -6.86162"
       id="path1646"
       sodipodi:nodetypes="ccc"
       transform="translate(-0.46354921,26.328298)" />
    <circle
       style="display:inline;fill:#fbdd77;fill-opacity:1;stroke:#ff0000;stroke-width:0.691696;stroke-miterlimit:4;stroke-dasharray:none;stroke-opacity:1"
       id="circle1648"
       cx="273.55579"
       cy="60.378593"
       r="11.361159"
       transform="translate(-0.46354921,26.328298)" />
    <text
       xml:space="preserve"
       style="font-style:normal;font-weight:normal;font-size:4.93889px;line-height:0%;font-family:'Bitstream Vera Sans';text-align:center;text-anchor:middle;display:inline;fill:#000000;fill-opacity:1;stroke:#000000;stroke-width:0.264583;stroke-opacity:1"
       x="273.4762"
       y="58.074684"
       id="text1654"
       transform="translate(-0.46354921,26.328298)"><tspan
         sodipodi:role="line"
         id="tspan1650"
         x="273.4762"
         y="58.074684"
         style="font-size:4.93889px;line-height:1.25;stroke:#000000;stroke-width:0.264583;stroke-opacity:1">Fifth</tspan><tspan
         sodipodi:role="line"
         x="273.4762"
         y="64.248299"
         id="tspan1652"
         style="font-size:4.93889px;line-height:1.25;stroke:#000000;stroke-width:0.264583;stroke-opacity:1">Commit</tspan></text>
    <text
       xml:space="preserve"
       style="font-style:normal;font-variant:normal;font-weight:normal;font-stretch:normal;font-size:7.05556px;line-height:1.25;font-family:Inconsolata;-inkscape-font-specification:Inconsolata;letter-spacing:0px;word-spacing:0px;display:inline;stroke:none;stroke-width:0.264583;stroke-opacity:1"
       x="273.58398"
       y="28.771366"
       id="text1660"
       transform="translate(-0.46354921,26.328298)"><tspan
         sodipodi:role="line"
         id="tspan1656"
         style="font-style:normal;font-variant:normal;font-weight:normal;font-stretch:normal;font-size:7.05556px;font-family:Inconsolata;-inkscape-font-specification:Inconsolata;text-align:center;text-anchor:middle;stroke:none;stroke-width:0.264583;stroke-opacity:1"
         x="273.58398"
         y="28.771366">Alt</tspan><tspan
         sodipodi:role="line"
         style="font-style:normal;font-variant:normal;font-weight:normal;font-stretch:normal;font-size:7.05556px;font-family:Inconsolata;-inkscape-font-specification:Inconsolata;text-align:center;text-anchor:middle;stroke:none;stroke-width:0.264583;stroke-opacity:1"
         x="273.58398"
         y="37.590816"
         id="tspan1658">branch</tspan></text>
    <path
       style="display:inline;fill:none;stroke:#000000;stroke-width:0.79375;stroke-linecap:butt;stroke-linejoin:miter;stroke-miterlimit:4;stroke-dasharray:none;stroke-opacity:1;marker-end:url(#Arrow1)"
       d="m 273.55582,39.901064 v 7.373243"
       id="path1662"
       sodipodi:nodetypes="cc"
       transform="translate(-0.46354921,26.328298)" />
    <path
       style="display:inline;fill:none;stroke:#000000;stroke-width:0.79375;stroke-linecap:butt;stroke-linejoin:miter;stroke-miterlimit:4;stroke-dasharray:none;stroke-opacity:1;marker-end:url(#marker5271)"
       d="M 273.5634,78.847674 V 72.532767"
       id="path1664"
       sodipodi:nodetypes="cc"
       transform="translate(-0.46354921,26.328298)" />
    <text
       xml:space="preserve"
       style="font-style:normal;font-variant:normal;font-weight:normal;font-stretch:normal;font-size:7.05556px;line-height:1.25;font-family:Inconsolata;-inkscape-font-specification:Inconsolata;letter-spacing:0px;word-spacing:0px;display:inline;stroke-width:0.264583"
       x="249.8051"
       y="82.442841"
       id="text1668"
       transform="translate(-0.46354921,26.328298)"><tspan
         sodipodi:role="line"
         id="tspan1666"
         style="font-style:normal;font-variant:normal;font-weight:normal;font-stretch:normal;font-size:7.05556px;font-family:Inconsolata;-inkscape-font-specification:Inconsolata;stroke-width:0.264583"
         x="249.8051"
         y="82.442841">HEAD</tspan></text>
    <path
       style="display:inline;fill:none;stroke:#000000;stroke-width:0.79375;stroke-linecap:butt;stroke-linejoin:miter;stroke-miterlimit:4;stroke-dasharray:none;stroke-opacity:1;marker-end:url(#Arrow1-3)"
       d="m 255.55399,84.786777 0.0175,5.29166 h -3.68662"
       id="path1670"
       sodipodi:nodetypes="ccc"
       transform="translate(-0.46354921,26.328298)" />
    <text
       xml:space="preserve"
       style="font-size:6.35px;line-height:1.25;font-family:'DejaVu Sans';-inkscape-font-specification:'DejaVu Sans';letter-spacing:0px;word-spacing:0px;display:inline;stroke-width:0.264583"
       x="283.30258"
       y="135.40175"
       id="text9248"
       transform="translate(-0.46354921,26.328298)"><tspan
         sodipodi:role="line"
         id="tspan9246"
         style="font-style:normal;font-variant:normal;font-weight:bold;font-stretch:normal;font-size:6.35px;font-family:'DejaVu Sans';-inkscape-font-specification:'DejaVu Sans Bold';text-align:center;text-anchor:middle;stroke-width:0.264583"
         x="283.30258"
         y="135.40175">git merge</tspan><tspan
         sodipodi:role="line"
         style="font-style:normal;font-variant:normal;font-weight:normal;font-stretch:normal;font-size:6.35px;font-family:'DejaVu Sans';-inkscape-font-specification:'DejaVu Sans Bold';text-align:center;text-anchor:middle;stroke-width:0.264583"
         x="283.30258"
         y="143.33925"
         id="tspan4899">(3-way merge)</tspan></text>
  </g>
  <g
     inkscape:groupmode="layer"
     id="layer3"
     inkscape:label="Layer 4"
     style="display:inline">
    <circle
       style="display:inline;fill:#fbdd77;fill-opacity:1;stroke:#000000;stroke-width:0.691696;stroke-miterlimit:4;stroke-dasharray:none;stroke-opacity:1"
       id="circle5330"
       cx="344.46399"
       cy="149.80777"
       r="11.361159"
       transform="translate(-0.46354921,26.328298)" />
    <text
       xml:space="preserve"
       style="font-style:normal;font-weight:normal;font-size:4.93889px;line-height:0%;font-family:'Bitstream Vera Sans';text-align:center;text-anchor:middle;display:inline;fill:#000000;fill-opacity:1;stroke:#000000;stroke-width:0.264583;stroke-opacity:1"
       x="344.3844"
       y="147.50386"
       id="text5336"
       transform="translate(-0.46354921,26.328298)"><tspan
         sodipodi:role="line"
         id="tspan5332"
         x="344.3844"
         y="147.50386"
         style="font-size:4.93889px;line-height:1.25;stroke:#000000;stroke-width:0.264583;stroke-opacity:1">First</tspan><tspan
         sodipodi:role="line"
         x="344.3844"
         y="153.67747"
         id="tspan5334"
         style="font-size:4.93889px;line-height:1.25;stroke:#000000;stroke-width:0.264583;stroke-opacity:1">Commit</tspan></text>
    <rect
       style="display:inline;fill:none;fill-opacity:1;stroke:#000000;stroke-width:0.847548;stroke-miterlimit:4;stroke-dasharray:none;stroke-opacity:1"
       id="rect5338"
       width="98.059799"
       height="195.278"
       x="318.3873"
       y="-25.904524"
       rx="2.6458335"
       ry="2.6458333"
       transform="translate(-0.46354921,26.328298)" />
    <text
       xml:space="preserve"
       style="font-style:normal;font-weight:normal;font-size:10.5833px;line-height:0%;font-family:'Bitstream Vera Sans';text-align:center;text-anchor:middle;display:inline;fill:#000000;fill-opacity:1;stroke:#000000;stroke-width:0.264583;stroke-opacity:1"
       x="349.39401"
       y="-13.080845"
       id="text5342"
       transform="translate(-0.46354921,26.328298)"><tspan
         sodipodi:role="line"
         x="349.39401"
         y="-13.080845"
         id="tspan5340"
         style="font-size:10.5833px;line-height:1.25;stroke:#000000;stroke-width:0.264583;stroke-opacity:1">Repository</tspan></text>
    <circle
       style="display:inline;fill:#fbdd77;fill-opacity:1;stroke:#000000;stroke-width:0.691696;stroke-miterlimit:4;stroke-dasharray:none;stroke-opacity:1"
       id="circle5344"
       cx="344.46405"
       cy="119.64527"
       r="11.361159"
       transform="translate(-0.46354921,26.328298)" />
    <text
       xml:space="preserve"
       style="font-style:normal;font-weight:normal;font-size:4.93889px;line-height:0%;font-family:'Bitstream Vera Sans';text-align:center;text-anchor:middle;display:inline;fill:#000000;fill-opacity:1;stroke:#000000;stroke-width:0.264583;stroke-opacity:1"
       x="344.38446"
       y="117.34135"
       id="text5350"
       transform="translate(-0.46354921,26.328298)"><tspan
         sodipodi:role="line"
         id="tspan5346"
         x="344.38446"
         y="117.34135"
         style="font-size:4.93889px;line-height:1.25;stroke:#000000;stroke-width:0.264583;stroke-opacity:1">Second</tspan><tspan
         sodipodi:role="line"
         x="344.38446"
         y="123.51496"
         id="tspan5348"
         style="font-size:4.93889px;line-height:1.25;stroke:#000000;stroke-width:0.264583;stroke-opacity:1">Commit</tspan></text>
    <path
       style="display:inline;fill:none;stroke:#000000;stroke-width:0.79375;stroke-linecap:butt;stroke-linejoin:miter;stroke-miterlimit:4;stroke-dasharray:none;stroke-opacity:1;marker-end:url(#marker5271)"
       d="m 344.47175,138.11437 v -6.31491"
       id="path5352"
       sodipodi:nodetypes="cc"
       transform="translate(-0.46354921,26.328298)" />
    <circle
       style="display:inline;fill:#fbdd77;fill-opacity:1;stroke:#000000;stroke-width:0.691696;stroke-miterlimit:4;stroke-dasharray:none;stroke-opacity:1"
       id="circle5354"
       cx="344.46405"
       cy="90.011932"
       r="11.361159"
       transform="translate(-0.46354921,26.328298)" />
    <text
       xml:space="preserve"
       style="font-style:normal;font-weight:normal;font-size:4.93889px;line-height:0%;font-family:'Bitstream Vera Sans';text-align:center;text-anchor:middle;display:inline;fill:#000000;fill-opacity:1;stroke:#000000;stroke-width:0.264583;stroke-opacity:1"
       x="344.38446"
       y="87.708023"
       id="text5360"
       transform="translate(-0.46354921,26.328298)"><tspan
         sodipodi:role="line"
         id="tspan5356"
         x="344.38446"
         y="87.708023"
         style="font-size:4.93889px;line-height:1.25;stroke:#000000;stroke-width:0.264583;stroke-opacity:1">Fourth</tspan><tspan
         sodipodi:role="line"
         x="344.38446"
         y="93.881638"
         id="tspan5358"
         style="font-size:4.93889px;line-height:1.25;stroke:#000000;stroke-width:0.264583;stroke-opacity:1">Commit</tspan></text>
    <text
       xml:space="preserve"
       style="font-style:normal;font-variant:normal;font-weight:normal;font-stretch:normal;font-size:7.05556px;line-height:1.25;font-family:Inconsolata;-inkscape-font-specification:Inconsolata;letter-spacing:0px;word-spacing:0px;display:inline;stroke:#000000;stroke-width:0.264583;stroke-opacity:1"
       x="344.49228"
       y="-1.9202943"
       id="text5366"
       transform="translate(-0.46354921,26.328298)"><tspan
         sodipodi:role="line"
         id="tspan5362"
         style="font-style:normal;font-variant:normal;font-weight:normal;font-stretch:normal;font-size:7.05556px;font-family:Inconsolata;-inkscape-font-specification:Inconsolata;text-align:center;text-anchor:middle;stroke:#000000;stroke-width:0.264583;stroke-opacity:1"
         x="344.49228"
         y="-1.9202943">Main</tspan><tspan
         sodipodi:role="line"
         style="font-style:normal;font-variant:normal;font-weight:normal;font-stretch:normal;font-size:7.05556px;font-family:Inconsolata;-inkscape-font-specification:Inconsolata;text-align:center;text-anchor:middle;stroke:#000000;stroke-width:0.264583;stroke-opacity:1"
         x="344.49228"
         y="6.8991556"
         id="tspan5364">branch</tspan></text>
    <path
       style="display:inline;fill:none;stroke:#000000;stroke-width:0.79375;stroke-linecap:butt;stroke-linejoin:miter;stroke-miterlimit:4;stroke-dasharray:none;stroke-opacity:1;marker-end:url(#Arrow1)"
       d="M 344.46417,9.2093975 V 16.582642"
       id="path5368"
       sodipodi:nodetypes="cc"
       transform="translate(-0.46354921,26.328298)" />
    <path
       style="display:inline;fill:none;stroke:#000000;stroke-width:0.79375;stroke-linecap:butt;stroke-linejoin:miter;stroke-miterlimit:4;stroke-dasharray:none;stroke-opacity:1;marker-end:url(#marker5271)"
       d="m 344.47175,108.48102 v -6.31491"
       id="path5370"
       sodipodi:nodetypes="cc"
       transform="translate(-0.46354921,26.328298)" />
    <circle
       style="display:inline;fill:#fbdd77;fill-opacity:1;stroke:#000000;stroke-width:0.691696;stroke-miterlimit:4;stroke-dasharray:none;stroke-opacity:1"
       id="circle5372"
       cx="379.38901"
       cy="90.011948"
       r="11.361159"
       transform="translate(-0.46354921,26.328298)" />
    <text
       xml:space="preserve"
       style="font-style:normal;font-weight:normal;font-size:4.93889px;line-height:0%;font-family:'Bitstream Vera Sans';text-align:center;text-anchor:middle;display:inline;fill:#000000;fill-opacity:1;stroke:#000000;stroke-width:0.264583;stroke-opacity:1"
       x="379.30942"
       y="87.708023"
       id="text5378"
       transform="translate(-0.46354921,26.328298)"><tspan
         sodipodi:role="line"
         id="tspan5374"
         x="379.30942"
         y="87.708023"
         style="font-size:4.93889px;line-height:1.25;stroke:#000000;stroke-width:0.264583;stroke-opacity:1">Third</tspan><tspan
         sodipodi:role="line"
         x="379.30942"
         y="93.881638"
         id="tspan5376"
         style="font-size:4.93889px;line-height:1.25;stroke:#000000;stroke-width:0.264583;stroke-opacity:1">Commit</tspan></text>
    <path
       style="display:inline;fill:none;stroke:#000000;stroke-width:0.79375;stroke-linecap:butt;stroke-linejoin:miter;stroke-miterlimit:4;stroke-dasharray:none;stroke-opacity:1;marker-end:url(#marker5271)"
       d="m 355.80203,119.59351 23.59473,-10.5658 v -6.86162"
       id="path5380"
       sodipodi:nodetypes="ccc"
       transform="translate(-0.46354921,26.328298)" />
    <circle
       style="display:inline;fill:#fbdd77;fill-opacity:1;stroke:#000000;stroke-width:0.691696;stroke-miterlimit:4;stroke-dasharray:none;stroke-opacity:1"
       id="circle5382"
       cx="379.38904"
       cy="60.378593"
       r="11.361159"
       transform="translate(-0.46354921,26.328298)" />
    <text
       xml:space="preserve"
       style="font-style:normal;font-weight:normal;font-size:4.93889px;line-height:0%;font-family:'Bitstream Vera Sans';text-align:center;text-anchor:middle;display:inline;fill:#000000;fill-opacity:1;stroke:#000000;stroke-width:0.264583;stroke-opacity:1"
       x="379.30945"
       y="58.074684"
       id="text5388"
       transform="translate(-0.46354921,26.328298)"><tspan
         sodipodi:role="line"
         id="tspan5384"
         x="379.30945"
         y="58.074684"
         style="font-size:4.93889px;line-height:1.25;stroke:#000000;stroke-width:0.264583;stroke-opacity:1">Fifth</tspan><tspan
         sodipodi:role="line"
         x="379.30945"
         y="64.248299"
         id="tspan5386"
         style="font-size:4.93889px;line-height:1.25;stroke:#000000;stroke-width:0.264583;stroke-opacity:1">Commit</tspan></text>
    <text
       xml:space="preserve"
       style="font-style:normal;font-variant:normal;font-weight:normal;font-stretch:normal;font-size:7.05556px;line-height:1.25;font-family:Inconsolata;-inkscape-font-specification:Inconsolata;letter-spacing:0px;word-spacing:0px;display:inline;stroke:none;stroke-width:0.264583;stroke-opacity:1"
       x="379.41724"
       y="28.771366"
       id="text5394"
       transform="translate(-0.46354921,26.328298)"><tspan
         sodipodi:role="line"
         id="tspan5390"
         style="font-style:normal;font-variant:normal;font-weight:normal;font-stretch:normal;font-size:7.05556px;font-family:Inconsolata;-inkscape-font-specification:Inconsolata;text-align:center;text-anchor:middle;stroke:none;stroke-width:0.264583;stroke-opacity:1"
         x="379.41724"
         y="28.771366">Alt</tspan><tspan
         sodipodi:role="line"
         style="font-style:normal;font-variant:normal;font-weight:normal;font-stretch:normal;font-size:7.05556px;font-family:Inconsolata;-inkscape-font-specification:Inconsolata;text-align:center;text-anchor:middle;stroke:none;stroke-width:0.264583;stroke-opacity:1"
         x="379.41724"
         y="37.590816"
         id="tspan5392">branch</tspan></text>
    <path
       style="display:inline;fill:none;stroke:#000000;stroke-width:0.79375;stroke-linecap:butt;stroke-linejoin:miter;stroke-miterlimit:4;stroke-dasharray:none;stroke-opacity:1;marker-end:url(#Arrow1)"
       d="m 379.38918,39.901064 v 7.373243"
       id="path5396"
       sodipodi:nodetypes="cc"
       transform="translate(-0.46354921,26.328298)" />
    <path
       style="display:inline;fill:none;stroke:#000000;stroke-width:0.79375;stroke-linecap:butt;stroke-linejoin:miter;stroke-miterlimit:4;stroke-dasharray:none;stroke-opacity:1;marker-end:url(#marker5271)"
       d="M 379.39676,78.847674 V 72.532767"
       id="path5398"
       sodipodi:nodetypes="cc"
       transform="translate(-0.46354921,26.328298)" />
    <path
       style="display:inline;fill:none;stroke:#000000;stroke-width:0.79375;stroke-linecap:butt;stroke-linejoin:miter;stroke-miterlimit:4;stroke-dasharray:none;stroke-opacity:1;marker-end:url(#marker5271)"
       d="m 371.24149,52.918503 -21.47808,-5.274128 -0.52917,-6.861617"
       id="path5996"
       sodipodi:nodetypes="ccc"
       transform="translate(-0.46354921,26.328298)" />
    <circle
       style="display:inline;fill:#fb9477;fill-opacity:1;stroke:#000000;stroke-width:0.691696;stroke-miterlimit:4;stroke-dasharray:none;stroke-opacity:1"
       id="circle6379"
       cx="344.46405"
       cy="29.157772"
       r="11.361159"
       transform="translate(-0.46354921,26.328298)" />
    <text
       xml:space="preserve"
       style="font-style:normal;font-weight:normal;font-size:4.93889px;line-height:0%;font-family:'Bitstream Vera Sans';text-align:center;text-anchor:middle;display:inline;fill:#000000;fill-opacity:1;stroke:#000000;stroke-width:0.264583;stroke-opacity:1"
       x="344.38446"
       y="26.853863"
       id="text6385"
       transform="translate(-0.46354921,26.328298)"><tspan
         sodipodi:role="line"
         id="tspan6381"
         x="344.38446"
         y="26.853863"
         style="font-size:4.93889px;line-height:1.25;stroke:#000000;stroke-width:0.264583;stroke-opacity:1">Merge</tspan><tspan
         sodipodi:role="line"
         x="344.38446"
         y="33.027473"
         id="tspan6383"
         style="font-size:4.93889px;line-height:1.25;stroke:#000000;stroke-width:0.264583;stroke-opacity:1">Commit</tspan></text>
    <path
       style="display:inline;fill:none;stroke:#000000;stroke-width:0.79375;stroke-linecap:butt;stroke-linejoin:miter;stroke-miterlimit:4;stroke-dasharray:none;stroke-opacity:1;marker-end:url(#marker5271)"
       d="M 344.47175,78.847681 V 41.311941"
       id="path6387"
       sodipodi:nodetypes="cc"
       transform="translate(-0.46354921,26.328298)" />
  </g>
</svg>
